# Blender v2.92.0 OBJ File: 'moon.blend'
# www.blender.org
o Torus
v 8.656466 0.000000 -9.098803
v 8.424518 0.000000 -8.233156
v 7.790820 0.000000 -7.599459
v 6.925173 0.000000 -7.367509
v 6.059526 0.000000 -7.599459
v 5.425829 0.000000 -8.233156
v 5.193880 0.000000 -9.098803
v 5.425829 0.000000 -9.964449
v 6.059526 0.000000 -10.598146
v 6.925173 0.000000 -10.830096
v 7.790820 0.000000 -10.598146
v 8.424518 0.000000 -9.964449
v 8.582410 1.129895 -9.098803
v 8.352445 1.099620 -8.233156
v 7.724169 1.016906 -7.599459
v 6.865928 0.903916 -7.367509
v 6.007687 0.790927 -7.599459
v 5.379410 0.708213 -8.233156
v 5.149446 0.677937 -9.098803
v 5.379410 0.708213 -9.964449
v 6.007687 0.790927 -10.598146
v 6.865928 0.903916 -10.830096
v 7.724169 1.016906 -10.598146
v 8.352445 1.099620 -9.964449
v 8.361505 2.240458 -9.098803
v 8.137459 2.180425 -8.233156
v 7.525354 2.016412 -7.599459
v 6.689204 1.792366 -7.367509
v 5.853053 1.568321 -7.599459
v 5.240948 1.404308 -8.233156
v 5.016903 1.344275 -9.098803
v 5.240948 1.404308 -9.964449
v 5.853053 1.568321 -10.598146
v 6.689204 1.792366 -10.830096
v 7.525354 2.016412 -10.598146
v 8.137459 2.180425 -9.964449
v 7.997532 3.312686 -9.098803
v 7.783240 3.223923 -8.233156
v 7.197779 2.981417 -7.599459
v 6.398026 2.650149 -7.367509
v 5.598273 2.318880 -7.599459
v 5.012813 2.076375 -8.233156
v 4.798520 1.987611 -9.098803
v 5.012813 2.076375 -9.964449
v 5.598273 2.318880 -10.598146
v 6.398026 2.650149 -10.830096
v 7.197779 2.981417 -10.598146
v 7.783240 3.223923 -9.964449
v 7.496719 4.328234 -9.098803
v 7.295846 4.212259 -8.233156
v 6.747047 3.895411 -7.599459
v 5.997375 3.462587 -7.367509
v 5.247704 3.029764 -7.599459
v 4.698905 2.712915 -8.233156
v 4.498032 2.596941 -9.098803
v 4.698905 2.712915 -9.964449
v 5.247704 3.029764 -10.598146
v 5.997375 3.462587 -10.830096
v 6.747047 3.895411 -10.598146
v 7.295846 4.212259 -9.964449
v 6.867638 5.269722 -9.098803
v 6.683619 5.128520 -8.233156
v 6.180874 4.742750 -7.599459
v 5.494110 4.215777 -7.367509
v 4.807346 3.688805 -7.599459
v 4.304600 3.303035 -8.233156
v 4.120582 3.161833 -9.098803
v 4.304600 3.303035 -9.964449
v 4.807346 3.688805 -10.598146
v 5.494110 4.215777 -10.830096
v 6.180874 4.742750 -10.598146
v 6.683619 5.128520 -9.964449
v 6.121046 6.121047 -9.098803
v 5.957033 5.957034 -8.233156
v 5.508941 5.508942 -7.599459
v 4.896836 4.896837 -7.367509
v 4.284732 4.284733 -7.599459
v 3.836640 3.836641 -8.233156
v 3.672628 3.672628 -9.098803
v 3.836640 3.836641 -9.964449
v 4.284732 4.284733 -10.598146
v 4.896836 4.896837 -10.830096
v 5.508941 5.508942 -10.598146
v 5.957033 5.957034 -9.964449
v 5.269724 6.867635 -9.098803
v 5.128522 6.683618 -8.233156
v 4.742752 6.180872 -7.599459
v 4.215779 5.494108 -7.367509
v 3.688807 4.807345 -7.599459
v 3.303036 4.304599 -8.233156
v 3.161834 4.120582 -9.098803
v 3.303036 4.304599 -9.964449
v 3.688807 4.807345 -10.598146
v 4.215779 5.494108 -10.830096
v 4.742752 6.180872 -10.598146
v 5.128522 6.683618 -9.964449
v 4.328233 7.496720 -9.098803
v 4.212258 7.295846 -8.233156
v 3.895410 6.747048 -7.599459
v 3.462586 5.997376 -7.367509
v 3.029763 5.247704 -7.599459
v 2.712914 4.698906 -8.233156
v 2.596940 4.498032 -9.098803
v 2.712914 4.698906 -9.964449
v 3.029763 5.247704 -10.598146
v 3.462586 5.997376 -10.830096
v 3.895410 6.747048 -10.598146
v 4.212258 7.295846 -9.964449
v 3.312688 7.997531 -9.098803
v 3.223925 7.783238 -8.233156
v 2.981420 7.197778 -7.599459
v 2.650151 6.398025 -7.367509
v 2.318882 5.598272 -7.599459
v 2.076376 5.012812 -8.233156
v 1.987613 4.798519 -9.098803
v 2.076376 5.012812 -9.964449
v 2.318882 5.598272 -10.598146
v 2.650151 6.398025 -10.830096
v 2.981420 7.197778 -10.598146
v 3.223925 7.783238 -9.964449
v 2.240459 8.361505 -9.098803
v 2.180426 8.137459 -8.233156
v 2.016413 7.525354 -7.599459
v 1.792367 6.689204 -7.367509
v 1.568321 5.853053 -7.599459
v 1.404308 5.240948 -8.233156
v 1.344275 5.016903 -9.098803
v 1.404308 5.240948 -9.964449
v 1.568321 5.853053 -10.598146
v 1.792367 6.689204 -10.830096
v 2.016413 7.525354 -10.598146
v 2.180426 8.137459 -9.964449
v 1.129894 8.582410 -9.098803
v 1.099619 8.352445 -8.233156
v 1.016905 7.724169 -7.599459
v 0.903915 6.865928 -7.367509
v 0.790926 6.007687 -7.599459
v 0.708212 5.379410 -8.233156
v 0.677936 5.149446 -9.098803
v 0.708212 5.379410 -9.964449
v 0.790926 6.007687 -10.598146
v 0.903915 6.865928 -10.830096
v 1.016905 7.724169 -10.598146
v 1.099619 8.352445 -9.964449
v 0.000001 8.656466 -9.098803
v 0.000001 8.424518 -8.233156
v 0.000001 7.790820 -7.599459
v 0.000001 6.925173 -7.367509
v 0.000000 6.059526 -7.599459
v 0.000000 5.425829 -8.233156
v 0.000000 5.193880 -9.098803
v 0.000000 5.425829 -9.964449
v 0.000000 6.059526 -10.598146
v 0.000001 6.925173 -10.830096
v 0.000001 7.790820 -10.598146
v 0.000001 8.424518 -9.964449
v -1.129897 8.582409 -9.098803
v -1.099621 8.352444 -8.233156
v -1.016907 7.724168 -7.599459
v -0.903917 6.865927 -7.367509
v -0.790928 6.007687 -7.599459
v -0.708214 5.379410 -8.233156
v -0.677938 5.149446 -9.098803
v -0.708214 5.379410 -9.964449
v -0.790928 6.007687 -10.598146
v -0.903917 6.865927 -10.830096
v -1.016907 7.724168 -10.598146
v -1.099621 8.352444 -9.964449
v -2.240457 8.361506 -9.098803
v -2.180424 8.137460 -8.233156
v -2.016412 7.525354 -7.599459
v -1.792366 6.689204 -7.367509
v -1.568320 5.853054 -7.599459
v -1.404307 5.240949 -8.233156
v -1.344274 5.016903 -9.098803
v -1.404307 5.240949 -9.964449
v -1.568320 5.853054 -10.598146
v -1.792366 6.689204 -10.830096
v -2.016412 7.525354 -10.598146
v -2.180424 8.137460 -9.964449
v -3.312687 7.997532 -9.098803
v -3.223924 7.783239 -8.233156
v -2.981418 7.197779 -7.599459
v -2.650150 6.398026 -7.367509
v -2.318881 5.598272 -7.599459
v -2.076375 5.012812 -8.233156
v -1.987612 4.798519 -9.098803
v -2.076375 5.012812 -9.964449
v -2.318881 5.598272 -10.598146
v -2.650150 6.398026 -10.830096
v -2.981418 7.197779 -10.598146
v -3.223924 7.783239 -9.964449
v -4.328232 7.496721 -9.098803
v -4.212257 7.295847 -8.233156
v -3.895409 6.747049 -7.599459
v -3.462586 5.997377 -7.367509
v -3.029763 5.247705 -7.599459
v -2.712914 4.698906 -8.233156
v -2.596939 4.498033 -9.098803
v -2.712914 4.698906 -9.964449
v -3.029763 5.247705 -10.598146
v -3.462586 5.997377 -10.830096
v -3.895409 6.747049 -10.598146
v -4.212257 7.295847 -9.964449
v -5.269723 6.867637 -9.098803
v -5.128521 6.683619 -8.233156
v -4.742751 6.180872 -7.599459
v -4.215778 5.494109 -7.367509
v -3.688806 4.807346 -7.599459
v -3.303036 4.304600 -8.233156
v -3.161834 4.120582 -9.098803
v -3.303036 4.304600 -9.964449
v -3.688806 4.807346 -10.598146
v -4.215778 5.494109 -10.830096
v -4.742751 6.180872 -10.598146
v -5.128521 6.683619 -9.964449
v -6.121048 6.121045 -9.098803
v -5.957035 5.957032 -8.233156
v -5.508943 5.508940 -7.599459
v -4.896838 4.896836 -7.367509
v -4.284733 4.284731 -7.599459
v -3.836642 3.836639 -8.233156
v -3.672628 3.672627 -9.098803
v -3.836642 3.836639 -9.964449
v -4.284733 4.284731 -10.598146
v -4.896838 4.896836 -10.830096
v -5.508943 5.508940 -10.598146
v -5.957035 5.957032 -9.964449
v -6.867637 5.269723 -9.098803
v -6.683619 5.128521 -8.233156
v -6.180872 4.742751 -7.599459
v -5.494109 4.215778 -7.367509
v -4.807346 3.688806 -7.599459
v -4.304600 3.303036 -8.233156
v -4.120582 3.161834 -9.098803
v -4.304600 3.303036 -9.964449
v -4.807346 3.688806 -10.598146
v -5.494109 4.215778 -10.830096
v -6.180872 4.742751 -10.598146
v -6.683619 5.128521 -9.964449
v -7.496719 4.328235 -9.098803
v -7.295845 4.212261 -8.233156
v -6.747047 3.895412 -7.599459
v -5.997375 3.462588 -7.367509
v -5.247703 3.029765 -7.599459
v -4.698905 2.712916 -8.233156
v -4.498032 2.596941 -9.098803
v -4.698905 2.712916 -9.964449
v -5.247703 3.029765 -10.598146
v -5.997375 3.462588 -10.830096
v -6.747047 3.895412 -10.598146
v -7.295845 4.212261 -9.964449
v -7.997532 3.312687 -9.098803
v -7.783239 3.223924 -8.233156
v -7.197779 2.981418 -7.599459
v -6.398026 2.650149 -7.367509
v -5.598272 2.318881 -7.599459
v -5.012812 2.076375 -8.233156
v -4.798519 1.987612 -9.098803
v -5.012812 2.076375 -9.964449
v -5.598272 2.318881 -10.598146
v -6.398026 2.650149 -10.830096
v -7.197779 2.981418 -10.598146
v -7.783239 3.223924 -9.964449
v -8.361506 2.240457 -9.098803
v -8.137460 2.180424 -8.233156
v -7.525354 2.016412 -7.599459
v -6.689204 1.792366 -7.367509
v -5.853054 1.568320 -7.599459
v -5.240949 1.404307 -8.233156
v -5.016903 1.344274 -9.098803
v -5.240949 1.404307 -9.964449
v -5.853054 1.568320 -10.598146
v -6.689204 1.792366 -10.830096
v -7.525354 2.016412 -10.598146
v -8.137460 2.180424 -9.964449
v -8.582409 1.129897 -9.098803
v -8.352444 1.099621 -8.233156
v -7.724168 1.016907 -7.599459
v -6.865927 0.903917 -7.367509
v -6.007687 0.790928 -7.599459
v -5.379410 0.708214 -8.233156
v -5.149446 0.677938 -9.098803
v -5.379410 0.708214 -9.964449
v -6.007687 0.790928 -10.598146
v -6.865927 0.903917 -10.830096
v -7.724168 1.016907 -10.598146
v -8.352444 1.099621 -9.964449
v -8.656466 0.000001 -9.098803
v -8.424518 0.000001 -8.233156
v -7.790820 0.000001 -7.599459
v -6.925173 0.000001 -7.367509
v -6.059526 0.000001 -7.599459
v -5.425829 0.000000 -8.233156
v -5.193880 0.000000 -9.098803
v -5.425829 0.000000 -9.964449
v -6.059526 0.000001 -10.598146
v -6.925173 0.000001 -10.830096
v -7.790820 0.000001 -10.598146
v -8.424518 0.000001 -9.964449
v -8.582409 -1.129897 -9.098803
v -8.352444 -1.099621 -8.233156
v -7.724168 -1.016907 -7.599459
v -6.865927 -0.903917 -7.367509
v -6.007687 -0.790928 -7.599459
v -5.379410 -0.708214 -8.233156
v -5.149446 -0.677938 -9.098803
v -5.379410 -0.708214 -9.964449
v -6.007687 -0.790928 -10.598146
v -6.865927 -0.903917 -10.830096
v -7.724168 -1.016907 -10.598146
v -8.352444 -1.099621 -9.964449
v -8.361506 -2.240457 -9.098803
v -8.137460 -2.180424 -8.233156
v -7.525354 -2.016412 -7.599459
v -6.689204 -1.792366 -7.367509
v -5.853054 -1.568320 -7.599459
v -5.240949 -1.404307 -8.233156
v -5.016903 -1.344274 -9.098803
v -5.240949 -1.404307 -9.964449
v -5.853054 -1.568320 -10.598146
v -6.689204 -1.792366 -10.830096
v -7.525354 -2.016412 -10.598146
v -8.137460 -2.180424 -9.964449
v -7.997534 -3.312683 -9.098803
v -7.783241 -3.223920 -8.233156
v -7.197781 -2.981415 -7.599459
v -6.398027 -2.650146 -7.367509
v -5.598274 -2.318878 -7.599459
v -5.012813 -2.076373 -8.233156
v -4.798520 -1.987610 -9.098803
v -5.012813 -2.076373 -9.964449
v -5.598274 -2.318878 -10.598146
v -6.398027 -2.650146 -10.830096
v -7.197781 -2.981415 -10.598146
v -7.783241 -3.223920 -9.964449
v -7.496721 -4.328232 -9.098803
v -7.295847 -4.212257 -8.233156
v -6.747049 -3.895409 -7.599459
v -5.997377 -3.462585 -7.367509
v -5.247705 -3.029762 -7.599459
v -4.698906 -2.712914 -8.233156
v -4.498033 -2.596939 -9.098803
v -4.698906 -2.712914 -9.964449
v -5.247705 -3.029762 -10.598146
v -5.997377 -3.462585 -10.830096
v -6.747049 -3.895409 -10.598146
v -7.295847 -4.212257 -9.964449
v -6.867637 -5.269723 -9.098803
v -6.683619 -5.128521 -8.233156
v -6.180872 -4.742751 -7.599459
v -5.494109 -4.215778 -7.367509
v -4.807346 -3.688806 -7.599459
v -4.304600 -3.303036 -8.233156
v -4.120582 -3.161834 -9.098803
v -4.304600 -3.303036 -9.964449
v -4.807346 -3.688806 -10.598146
v -5.494109 -4.215778 -10.830096
v -6.180872 -4.742751 -10.598146
v -6.683619 -5.128521 -9.964449
v -6.121048 -6.121045 -9.098803
v -5.957035 -5.957032 -8.233156
v -5.508943 -5.508940 -7.599459
v -4.896838 -4.896836 -7.367509
v -4.284733 -4.284731 -7.599459
v -3.836642 -3.836639 -8.233156
v -3.672628 -3.672627 -9.098803
v -3.836642 -3.836639 -9.964449
v -4.284733 -4.284731 -10.598146
v -4.896838 -4.896836 -10.830096
v -5.508943 -5.508940 -10.598146
v -5.957035 -5.957032 -9.964449
v -5.269726 -6.867634 -9.098803
v -5.128525 -6.683616 -8.233156
v -4.742754 -6.180871 -7.599459
v -4.215781 -5.494107 -7.367509
v -3.688809 -4.807343 -7.599459
v -3.303038 -4.304598 -8.233156
v -3.161836 -4.120580 -9.098803
v -3.303038 -4.304598 -9.964449
v -3.688809 -4.807343 -10.598146
v -4.215781 -5.494107 -10.830096
v -4.742754 -6.180871 -10.598146
v -5.128525 -6.683616 -9.964449
v -4.328232 -7.496721 -9.098803
v -4.212257 -7.295847 -8.233156
v -3.895409 -6.747049 -7.599459
v -3.462586 -5.997377 -7.367509
v -3.029763 -5.247705 -7.599459
v -2.712914 -4.698906 -8.233156
v -2.596939 -4.498033 -9.098803
v -2.712914 -4.698906 -9.964449
v -3.029763 -5.247705 -10.598146
v -3.462586 -5.997377 -10.830096
v -3.895409 -6.747049 -10.598146
v -4.212257 -7.295847 -9.964449
v -3.312687 -7.997532 -9.098803
v -3.223924 -7.783239 -8.233156
v -2.981418 -7.197779 -7.599459
v -2.650150 -6.398026 -7.367509
v -2.318881 -5.598272 -7.599459
v -2.076375 -5.012812 -8.233156
v -1.987612 -4.798519 -9.098803
v -2.076375 -5.012812 -9.964449
v -2.318881 -5.598272 -10.598146
v -2.650150 -6.398026 -10.830096
v -2.981418 -7.197779 -10.598146
v -3.223924 -7.783239 -9.964449
v -2.240461 -8.361505 -9.098803
v -2.180429 -8.137458 -8.233156
v -2.016415 -7.525353 -7.599459
v -1.792369 -6.689203 -7.367509
v -1.568323 -5.853053 -7.599459
v -1.404310 -5.240948 -8.233156
v -1.344277 -5.016902 -9.098803
v -1.404310 -5.240948 -9.964449
v -1.568323 -5.853053 -10.598146
v -1.792369 -6.689203 -10.830096
v -2.016415 -7.525353 -10.598146
v -2.180429 -8.137458 -9.964449
v -1.129901 -8.582409 -9.098803
v -1.099625 -8.352444 -8.233156
v -1.016911 -7.724168 -7.599459
v -0.903921 -6.865927 -7.367509
v -0.790931 -6.007686 -7.599459
v -0.708216 -5.379410 -8.233156
v -0.677941 -5.149445 -9.098803
v -0.708216 -5.379410 -9.964449
v -0.790931 -6.007686 -10.598146
v -0.903921 -6.865927 -10.830096
v -1.016911 -7.724168 -10.598146
v -1.099625 -8.352444 -9.964449
v 0.000001 -8.656466 -9.098803
v 0.000001 -8.424518 -8.233156
v 0.000001 -7.790820 -7.599459
v 0.000001 -6.925173 -7.367509
v 0.000000 -6.059526 -7.599459
v 0.000000 -5.425829 -8.233156
v 0.000000 -5.193880 -9.098803
v 0.000000 -5.425829 -9.964449
v 0.000000 -6.059526 -10.598146
v 0.000001 -6.925173 -10.830096
v 0.000001 -7.790820 -10.598146
v 0.000001 -8.424518 -9.964449
v 1.129894 -8.582410 -9.098803
v 1.099619 -8.352445 -8.233156
v 1.016905 -7.724169 -7.599459
v 0.903915 -6.865928 -7.367509
v 0.790926 -6.007687 -7.599459
v 0.708212 -5.379410 -8.233156
v 0.677936 -5.149446 -9.098803
v 0.708212 -5.379410 -9.964449
v 0.790926 -6.007687 -10.598146
v 0.903915 -6.865928 -10.830096
v 1.016905 -7.724169 -10.598146
v 1.099619 -8.352445 -9.964449
v 2.240455 -8.361506 -9.098803
v 2.180422 -8.137460 -8.233156
v 2.016409 -7.525355 -7.599459
v 1.792364 -6.689205 -7.367509
v 1.568318 -5.853054 -7.599459
v 1.404305 -5.240949 -8.233156
v 1.344273 -5.016903 -9.098803
v 1.404305 -5.240949 -9.964449
v 1.568318 -5.853054 -10.598146
v 1.792364 -6.689205 -10.830096
v 2.016409 -7.525355 -10.598146
v 2.180422 -8.137460 -9.964449
v 3.312688 -7.997531 -9.098803
v 3.223925 -7.783238 -8.233156
v 2.981420 -7.197778 -7.599459
v 2.650151 -6.398025 -7.367509
v 2.318882 -5.598272 -7.599459
v 2.076376 -5.012812 -8.233156
v 1.987613 -4.798519 -9.098803
v 2.076376 -5.012812 -9.964449
v 2.318882 -5.598272 -10.598146
v 2.650151 -6.398025 -10.830096
v 2.981420 -7.197778 -10.598146
v 3.223925 -7.783238 -9.964449
v 4.328233 -7.496720 -9.098803
v 4.212258 -7.295846 -8.233156
v 3.895410 -6.747048 -7.599459
v 3.462586 -5.997376 -7.367509
v 3.029763 -5.247704 -7.599459
v 2.712914 -4.698906 -8.233156
v 2.596940 -4.498032 -9.098803
v 2.712914 -4.698906 -9.964449
v 3.029763 -5.247704 -10.598146
v 3.462586 -5.997376 -10.830096
v 3.895410 -6.747048 -10.598146
v 4.212258 -7.295846 -9.964449
v 5.269721 -6.867638 -9.098803
v 5.128519 -6.683620 -8.233156
v 4.742749 -6.180874 -7.599459
v 4.215777 -5.494111 -7.367509
v 3.688805 -4.807347 -7.599459
v 3.303034 -4.304600 -8.233156
v 3.161833 -4.120583 -9.098803
v 3.303034 -4.304600 -9.964449
v 3.688805 -4.807347 -10.598146
v 4.215777 -5.494111 -10.830096
v 4.742749 -6.180874 -10.598146
v 5.128519 -6.683620 -9.964449
v 6.121043 -6.121049 -9.098803
v 5.957030 -5.957037 -8.233156
v 5.508939 -5.508945 -7.599459
v 4.896834 -4.896840 -7.367509
v 4.284730 -4.284735 -7.599459
v 3.836639 -3.836643 -8.233156
v 3.672626 -3.672630 -9.098803
v 3.836639 -3.836643 -9.964449
v 4.284730 -4.284735 -10.598146
v 4.896834 -4.896840 -10.830096
v 5.508939 -5.508945 -10.598146
v 5.957030 -5.957037 -9.964449
v 6.867638 -5.269722 -9.098803
v 6.683619 -5.128520 -8.233156
v 6.180874 -4.742750 -7.599459
v 5.494110 -4.215777 -7.367509
v 4.807346 -3.688805 -7.599459
v 4.304600 -3.303035 -8.233156
v 4.120582 -3.161833 -9.098803
v 4.304600 -3.303035 -9.964449
v 4.807346 -3.688805 -10.598146
v 5.494110 -4.215777 -10.830096
v 6.180874 -4.742750 -10.598146
v 6.683619 -5.128520 -9.964449
v 7.496719 -4.328234 -9.098803
v 7.295846 -4.212259 -8.233156
v 6.747047 -3.895411 -7.599459
v 5.997375 -3.462587 -7.367509
v 5.247704 -3.029764 -7.599459
v 4.698905 -2.712915 -8.233156
v 4.498032 -2.596941 -9.098803
v 4.698905 -2.712915 -9.964449
v 5.247704 -3.029764 -10.598146
v 5.997375 -3.462587 -10.830096
v 6.747047 -3.895411 -10.598146
v 7.295846 -4.212259 -9.964449
v 7.997531 -3.312690 -9.098803
v 7.783238 -3.223926 -8.233156
v 7.197778 -2.981421 -7.599459
v 6.398025 -2.650152 -7.367509
v 5.598271 -2.318883 -7.599459
v 5.012812 -2.076377 -8.233156
v 4.798519 -1.987614 -9.098803
v 5.012812 -2.076377 -9.964449
v 5.598271 -2.318883 -10.598146
v 6.398025 -2.650152 -10.830096
v 7.197778 -2.981421 -10.598146
v 7.783238 -3.223926 -9.964449
v 8.361506 -2.240456 -9.098803
v 8.137460 -2.180423 -8.233156
v 7.525354 -2.016411 -7.599459
v 6.689204 -1.792365 -7.367509
v 5.853054 -1.568319 -7.599459
v 5.240949 -1.404307 -8.233156
v 5.016903 -1.344274 -9.098803
v 5.240949 -1.404307 -9.964449
v 5.853054 -1.568319 -10.598146
v 6.689204 -1.792365 -10.830096
v 7.525354 -2.016411 -10.598146
v 8.137460 -2.180423 -9.964449
v 8.582410 -1.129895 -9.098803
v 8.352445 -1.099620 -8.233156
v 7.724169 -1.016906 -7.599459
v 6.865928 -0.903916 -7.367509
v 6.007687 -0.790927 -7.599459
v 5.379410 -0.708213 -8.233156
v 5.149446 -0.677937 -9.098803
v 5.379410 -0.708213 -9.964449
v 6.007687 -0.790927 -10.598146
v 6.865928 -0.903916 -10.830096
v 7.724169 -1.016906 -10.598146
v 8.352445 -1.099620 -9.964449
vt 0.500000 0.500000
vt 0.520833 0.583333
vt 0.500000 0.583333
vt 0.520833 0.666667
vt 0.500000 0.666667
vt 0.520833 0.750000
vt 0.500000 0.750000
vt 0.520833 0.833333
vt 0.500000 0.833333
vt 0.500000 0.916667
vt 0.520833 1.000000
vt 0.500000 1.000000
vt 0.520833 0.000000
vt 0.500000 0.083333
vt 0.500000 0.000000
vt 0.520833 0.166667
vt 0.500000 0.166667
vt 0.500000 0.250000
vt 0.520833 0.250000
vt 0.500000 0.333333
vt 0.520833 0.333333
vt 0.500000 0.416667
vt 0.520833 0.416667
vt 0.541667 0.500000
vt 0.520833 0.500000
vt 0.541667 0.583333
vt 0.541667 0.666667
vt 0.541667 0.750000
vt 0.541667 0.833333
vt 0.520833 0.916667
vt 0.541667 1.000000
vt 0.541667 0.000000
vt 0.520833 0.083333
vt 0.541667 0.166667
vt 0.541667 0.250000
vt 0.541667 0.333333
vt 0.541667 0.416667
vt 0.562500 0.583333
vt 0.562500 0.666667
vt 0.562500 0.833333
vt 0.562500 0.916667
vt 0.541667 0.916667
vt 0.562500 1.000000
vt 0.562500 0.000000
vt 0.541667 0.083333
vt 0.562500 0.083333
vt 0.562500 0.166667
vt 0.562500 0.333333
vt 0.562500 0.416667
vt 0.562500 0.500000
vt 0.583333 0.583333
vt 0.583333 0.750000
vt 0.562500 0.750000
vt 0.583333 0.833333
vt 0.583333 0.916667
vt 0.583333 0.083333
vt 0.583333 0.250000
vt 0.562500 0.250000
vt 0.583333 0.416667
vt 0.604167 0.500000
vt 0.583333 0.500000
vt 0.604167 0.666667
vt 0.583333 0.666667
vt 0.604167 0.750000
vt 0.604167 0.916667
vt 0.583333 1.000000
vt 0.583333 0.000000
vt 0.604167 0.083333
vt 0.583333 0.166667
vt 0.604167 0.250000
vt 0.583333 0.333333
vt 0.604167 0.333333
vt 0.625000 0.500000
vt 0.604167 0.583333
vt 0.625000 0.583333
vt 0.625000 0.666667
vt 0.625000 0.750000
vt 0.604167 0.833333
vt 0.625000 0.916667
vt 0.604167 1.000000
vt 0.625000 0.000000
vt 0.604167 0.000000
vt 0.625000 0.083333
vt 0.604167 0.166667
vt 0.625000 0.250000
vt 0.625000 0.333333
vt 0.625000 0.416667
vt 0.604167 0.416667
vt 0.645833 0.583333
vt 0.645833 0.666667
vt 0.645833 0.750000
vt 0.625000 0.833333
vt 0.645833 0.833333
vt 0.645833 0.916667
vt 0.625000 1.000000
vt 0.645833 0.083333
vt 0.645833 0.166667
vt 0.625000 0.166667
vt 0.645833 0.250000
vt 0.645833 0.333333
vt 0.645833 0.416667
vt 0.645833 0.500000
vt 0.666667 0.583333
vt 0.666667 0.666667
vt 0.666667 0.750000
vt 0.666667 0.833333
vt 0.666667 0.916667
vt 0.666667 1.000000
vt 0.645833 1.000000
vt 0.666667 0.000000
vt 0.645833 0.000000
vt 0.666667 0.083333
vt 0.666667 0.166667
vt 0.666667 0.250000
vt 0.666667 0.333333
vt 0.666667 0.416667
vt 0.687500 0.500000
vt 0.666667 0.500000
vt 0.687500 0.583333
vt 0.687500 0.666667
vt 0.687500 0.750000
vt 0.687500 0.833333
vt 0.687500 0.916667
vt 0.687500 0.083333
vt 0.687500 0.166667
vt 0.687500 0.250000
vt 0.687500 0.333333
vt 0.687500 0.416667
vt 0.708333 0.500000
vt 0.708333 0.666667
vt 0.708333 0.750000
vt 0.708333 0.916667
vt 0.687500 1.000000
vt 0.687500 0.000000
vt 0.708333 0.083333
vt 0.708333 0.166667
vt 0.708333 0.250000
vt 0.708333 0.333333
vt 0.729167 0.500000
vt 0.708333 0.583333
vt 0.729167 0.666667
vt 0.729167 0.750000
vt 0.708333 0.833333
vt 0.729167 0.833333
vt 0.729167 0.916667
vt 0.708333 1.000000
vt 0.708333 0.000000
vt 0.729167 0.083333
vt 0.729167 0.166667
vt 0.729167 0.250000
vt 0.729167 0.333333
vt 0.708333 0.416667
vt 0.750000 0.500000
vt 0.729167 0.583333
vt 0.750000 0.583333
vt 0.750000 0.666667
vt 0.750000 0.833333
vt 0.750000 0.916667
vt 0.729167 1.000000
vt 0.750000 0.000000
vt 0.729167 0.000000
vt 0.750000 0.083333
vt 0.750000 0.166667
vt 0.750000 0.333333
vt 0.729167 0.416667
vt 0.750000 0.416667
vt 0.770833 0.500000
vt 0.770833 0.583333
vt 0.770833 0.666667
vt 0.750000 0.750000
vt 0.770833 0.750000
vt 0.770833 0.916667
vt 0.750000 1.000000
vt 0.770833 0.000000
vt 0.770833 0.083333
vt 0.770833 0.250000
vt 0.750000 0.250000
vt 0.770833 0.333333
vt 0.770833 0.416667
vt 0.791667 0.583333
vt 0.791667 0.666667
vt 0.791667 0.750000
vt 0.791667 0.833333
vt 0.770833 0.833333
vt 0.791667 0.916667
vt 0.770833 1.000000
vt 0.791667 0.083333
vt 0.770833 0.166667
vt 0.791667 0.166667
vt 0.791667 0.250000
vt 0.791667 0.333333
vt 0.791667 0.416667
vt 0.812500 0.500000
vt 0.791667 0.500000
vt 0.812500 0.583333
vt 0.812500 0.750000
vt 0.812500 0.833333
vt 0.812500 0.916667
vt 0.791667 1.000000
vt 0.791667 0.000000
vt 0.812500 0.083333
vt 0.812500 0.166667
vt 0.812500 0.250000
vt 0.812500 0.416667
vt 0.833333 0.500000
vt 0.833333 0.583333
vt 0.812500 0.666667
vt 0.833333 0.666667
vt 0.833333 0.833333
vt 0.833333 0.916667
vt 0.833333 1.000000
vt 0.812500 1.000000
vt 0.833333 0.000000
vt 0.812500 0.000000
vt 0.833333 0.083333
vt 0.833333 0.166667
vt 0.833333 0.333333
vt 0.812500 0.333333
vt 0.833333 0.416667
vt 0.854167 0.500000
vt 0.854167 0.583333
vt 0.854167 0.666667
vt 0.833333 0.750000
vt 0.854167 0.750000
vt 0.854167 0.833333
vt 0.854167 1.000000
vt 0.854167 0.000000
vt 0.854167 0.166667
vt 0.854167 0.250000
vt 0.833333 0.250000
vt 0.854167 0.333333
vt 0.854167 0.416667
vt 0.875000 0.583333
vt 0.875000 0.750000
vt 0.875000 0.833333
vt 0.854167 0.916667
vt 0.875000 1.000000
vt 0.875000 0.000000
vt 0.854167 0.083333
vt 0.875000 0.166667
vt 0.875000 0.250000
vt 0.875000 0.333333
vt 0.875000 0.416667
vt 0.875000 0.500000
vt 0.895833 0.583333
vt 0.875000 0.666667
vt 0.895833 0.666667
vt 0.895833 0.833333
vt 0.895833 0.916667
vt 0.875000 0.916667
vt 0.895833 1.000000
vt 0.895833 0.000000
vt 0.875000 0.083333
vt 0.895833 0.083333
vt 0.895833 0.166667
vt 0.895833 0.333333
vt 0.895833 0.416667
vt 0.895833 0.500000
vt 0.916667 0.583333
vt 0.916667 0.750000
vt 0.895833 0.750000
vt 0.916667 0.833333
vt 0.916667 0.916667
vt 0.916667 0.083333
vt 0.916667 0.166667
vt 0.895833 0.250000
vt 0.916667 0.250000
vt 0.916667 0.416667
vt 0.916667 0.500000
vt 0.937500 0.583333
vt 0.916667 0.666667
vt 0.937500 0.750000
vt 0.937500 0.833333
vt 0.937500 0.916667
vt 0.916667 1.000000
vt 0.916667 0.000000
vt 0.937500 0.083333
vt 0.937500 0.166667
vt 0.937500 0.250000
vt 0.916667 0.333333
vt 0.937500 0.416667
vt 0.958333 0.500000
vt 0.937500 0.500000
vt 0.958333 0.666667
vt 0.937500 0.666667
vt 0.958333 0.833333
vt 0.958333 0.916667
vt 0.958333 1.000000
vt 0.937500 1.000000
vt 0.958333 0.000000
vt 0.937500 0.000000
vt 0.958333 0.083333
vt 0.958333 0.166667
vt 0.958333 0.250000
vt 0.937500 0.333333
vt 0.958333 0.333333
vt 0.958333 0.416667
vt 0.979167 0.500000
vt 0.958333 0.583333
vt 0.979167 0.583333
vt 0.979167 0.666667
vt 0.958333 0.750000
vt 0.979167 0.750000
vt 0.979167 0.833333
vt 0.979167 1.000000
vt 0.979167 0.000000
vt 0.979167 0.166667
vt 0.979167 0.250000
vt 0.979167 0.333333
vt 0.979167 0.416667
vt 1.000000 0.583333
vt 1.000000 0.666667
vt 1.000000 0.750000
vt 1.000000 0.833333
vt 0.979167 0.916667
vt 1.000000 0.916667
vt 1.000000 0.000000
vt 0.979167 0.083333
vt 1.000000 0.166667
vt 1.000000 0.250000
vt 1.000000 0.333333
vt 1.000000 0.416667
vt 0.020833 0.500000
vt 0.000000 0.583333
vt 0.000000 0.500000
vt 0.020833 0.583333
vt 0.000000 0.666667
vt 0.020833 0.666667
vt 0.000000 0.750000
vt 0.020833 0.750000
vt 0.000000 0.833333
vt 0.020833 0.916667
vt 0.000000 0.916667
vt 0.000000 1.000000
vt 0.020833 0.000000
vt 0.000000 0.083333
vt 0.000000 0.000000
vt 0.020833 0.083333
vt 0.000000 0.166667
vt 0.020833 0.250000
vt 0.000000 0.250000
vt 0.020833 0.333333
vt 0.000000 0.333333
vt 0.020833 0.416667
vt 0.000000 0.416667
vt 0.041667 0.583333
vt 0.041667 0.666667
vt 0.041667 0.750000
vt 0.041667 0.833333
vt 0.020833 0.833333
vt 0.041667 0.916667
vt 0.020833 1.000000
vt 0.041667 0.083333
vt 0.020833 0.166667
vt 0.041667 0.166667
vt 0.041667 0.250000
vt 0.041667 0.333333
vt 0.041667 0.416667
vt 0.062500 0.500000
vt 0.041667 0.500000
vt 0.062500 0.583333
vt 0.062500 0.750000
vt 0.062500 0.833333
vt 0.062500 0.916667
vt 0.041667 1.000000
vt 0.041667 0.000000
vt 0.062500 0.083333
vt 0.062500 0.166667
vt 0.062500 0.250000
vt 0.062500 0.416667
vt 0.083333 0.500000
vt 0.083333 0.583333
vt 0.062500 0.666667
vt 0.083333 0.666667
vt 0.083333 0.750000
vt 0.083333 0.833333
vt 0.083333 1.000000
vt 0.062500 1.000000
vt 0.083333 0.000000
vt 0.062500 0.000000
vt 0.083333 0.166667
vt 0.083333 0.333333
vt 0.062500 0.333333
vt 0.083333 0.416667
vt 0.104167 0.500000
vt 0.104167 0.583333
vt 0.104167 0.666667
vt 0.104167 0.750000
vt 0.104167 0.916667
vt 0.083333 0.916667
vt 0.104167 1.000000
vt 0.104167 0.000000
vt 0.083333 0.083333
vt 0.104167 0.083333
vt 0.104167 0.166667
vt 0.083333 0.250000
vt 0.104167 0.333333
vt 0.104167 0.416667
vt 0.125000 0.500000
vt 0.125000 0.666667
vt 0.125000 0.750000
vt 0.104167 0.833333
vt 0.125000 0.833333
vt 0.125000 0.916667
vt 0.125000 0.083333
vt 0.125000 0.166667
vt 0.125000 0.250000
vt 0.104167 0.250000
vt 0.125000 0.333333
vt 0.145833 0.500000
vt 0.125000 0.583333
vt 0.145833 0.666667
vt 0.145833 0.750000
vt 0.145833 0.833333
vt 0.145833 0.916667
vt 0.125000 1.000000
vt 0.145833 0.000000
vt 0.125000 0.000000
vt 0.145833 0.083333
vt 0.145833 0.166667
vt 0.145833 0.250000
vt 0.145833 0.333333
vt 0.125000 0.416667
vt 0.145833 0.416667
vt 0.166667 0.583333
vt 0.145833 0.583333
vt 0.166667 0.750000
vt 0.166667 0.833333
vt 0.166667 0.916667
vt 0.145833 1.000000
vt 0.166667 0.083333
vt 0.166667 0.166667
vt 0.166667 0.250000
vt 0.166667 0.333333
vt 0.166667 0.416667
vt 0.187500 0.500000
vt 0.166667 0.500000
vt 0.187500 0.583333
vt 0.166667 0.666667
vt 0.187500 0.750000
vt 0.187500 0.833333
vt 0.187500 0.916667
vt 0.166667 1.000000
vt 0.166667 0.000000
vt 0.187500 0.083333
vt 0.187500 0.166667
vt 0.187500 0.250000
vt 0.187500 0.333333
vt 0.187500 0.416667
vt 0.208333 0.583333
vt 0.187500 0.666667
vt 0.208333 0.666667
vt 0.208333 0.833333
vt 0.208333 0.916667
vt 0.187500 1.000000
vt 0.208333 0.000000
vt 0.187500 0.000000
vt 0.208333 0.083333
vt 0.208333 0.166667
vt 0.208333 0.333333
vt 0.208333 0.416667
vt 0.208333 0.500000
vt 0.229167 0.583333
vt 0.229167 0.666667
vt 0.208333 0.750000
vt 0.229167 0.750000
vt 0.229167 0.916667
vt 0.208333 1.000000
vt 0.229167 0.083333
vt 0.229167 0.250000
vt 0.208333 0.250000
vt 0.229167 0.333333
vt 0.229167 0.416667
vt 0.250000 0.500000
vt 0.229167 0.500000
vt 0.250000 0.583333
vt 0.250000 0.666667
vt 0.250000 0.833333
vt 0.229167 0.833333
vt 0.250000 1.000000
vt 0.229167 1.000000
vt 0.250000 0.000000
vt 0.229167 0.000000
vt 0.250000 0.083333
vt 0.229167 0.166667
vt 0.250000 0.166667
vt 0.250000 0.250000
vt 0.250000 0.416667
vt 0.270833 0.500000
vt 0.270833 0.583333
vt 0.270833 0.750000
vt 0.250000 0.750000
vt 0.270833 0.833333
vt 0.250000 0.916667
vt 0.270833 0.916667
vt 0.270833 0.000000
vt 0.270833 0.166667
vt 0.270833 0.250000
vt 0.250000 0.333333
vt 0.270833 0.333333
vt 0.270833 0.416667
vt 0.291667 0.500000
vt 0.291667 0.583333
vt 0.270833 0.666667
vt 0.291667 0.666667
vt 0.291667 0.750000
vt 0.291667 0.916667
vt 0.270833 1.000000
vt 0.291667 0.000000
vt 0.270833 0.083333
vt 0.291667 0.083333
vt 0.291667 0.250000
vt 0.291667 0.333333
vt 0.291667 0.416667
vt 0.312500 0.500000
vt 0.312500 0.583333
vt 0.312500 0.666667
vt 0.312500 0.833333
vt 0.291667 0.833333
vt 0.312500 1.000000
vt 0.291667 1.000000
vt 0.312500 0.000000
vt 0.312500 0.083333
vt 0.291667 0.166667
vt 0.312500 0.166667
vt 0.312500 0.250000
vt 0.312500 0.416667
vt 0.333333 0.500000
vt 0.333333 0.666667
vt 0.333333 0.750000
vt 0.312500 0.750000
vt 0.333333 0.833333
vt 0.333333 0.916667
vt 0.312500 0.916667
vt 0.333333 1.000000
vt 0.333333 0.000000
vt 0.333333 0.083333
vt 0.333333 0.166667
vt 0.333333 0.250000
vt 0.312500 0.333333
vt 0.333333 0.333333
vt 0.333333 0.416667
vt 0.354167 0.583333
vt 0.333333 0.583333
vt 0.354167 0.666667
vt 0.354167 0.750000
vt 0.354167 0.833333
vt 0.354167 0.916667
vt 0.354167 0.083333
vt 0.354167 0.166667
vt 0.354167 0.250000
vt 0.354167 0.333333
vt 0.354167 0.416667
vt 0.354167 0.500000
vt 0.375000 0.583333
vt 0.375000 0.750000
vt 0.375000 0.833333
vt 0.375000 0.916667
vt 0.375000 1.000000
vt 0.354167 1.000000
vt 0.375000 0.000000
vt 0.354167 0.000000
vt 0.375000 0.083333
vt 0.375000 0.166667
vt 0.375000 0.250000
vt 0.375000 0.333333
vt 0.375000 0.416667
vt 0.375000 0.500000
vt 0.395833 0.583333
vt 0.375000 0.666667
vt 0.395833 0.750000
vt 0.395833 0.833333
vt 0.395833 1.000000
vt 0.395833 0.000000
vt 0.395833 0.166667
vt 0.395833 0.250000
vt 0.395833 0.416667
vt 0.395833 0.500000
vt 0.416667 0.583333
vt 0.395833 0.666667
vt 0.416667 0.666667
vt 0.416667 0.833333
vt 0.395833 0.916667
vt 0.416667 1.000000
vt 0.416667 0.000000
vt 0.395833 0.083333
vt 0.416667 0.166667
vt 0.416667 0.250000
vt 0.395833 0.333333
vt 0.416667 0.416667
vt 0.416667 0.500000
vt 0.437500 0.583333
vt 0.437500 0.666667
vt 0.437500 0.750000
vt 0.416667 0.750000
vt 0.437500 0.833333
vt 0.416667 0.916667
vt 0.437500 1.000000
vt 0.437500 0.000000
vt 0.416667 0.083333
vt 0.437500 0.083333
vt 0.437500 0.166667
vt 0.437500 0.250000
vt 0.416667 0.333333
vt 0.437500 0.333333
vt 0.437500 0.416667
vt 0.458333 0.500000
vt 0.437500 0.500000
vt 0.458333 0.583333
vt 0.458333 0.666667
vt 0.458333 0.750000
vt 0.458333 0.833333
vt 0.437500 0.916667
vt 0.458333 0.916667
vt 0.458333 0.083333
vt 0.458333 0.166667
vt 0.458333 0.333333
vt 0.479167 0.500000
vt 0.479167 0.666667
vt 0.479167 0.750000
vt 0.479167 0.833333
vt 0.479167 0.916667
vt 0.479167 1.000000
vt 0.458333 1.000000
vt 0.479167 0.000000
vt 0.458333 0.000000
vt 0.479167 0.083333
vt 0.479167 0.166667
vt 0.458333 0.250000
vt 0.479167 0.250000
vt 0.479167 0.333333
vt 0.458333 0.416667
vt 0.479167 0.416667
vt 0.479167 0.583333
vt 1.000000 0.500000
vt 1.000000 1.000000
vt 1.000000 0.083333
vn 1.0000 0.0000 0.0000
vn 0.8612 0.1134 0.4954
vn 0.8686 0.0000 0.4954
vn 0.5036 0.0663 0.8614
vn 0.5080 0.0000 0.8614
vn 0.0107 0.0014 0.9999
vn 0.0108 0.0000 0.9999
vn -0.4876 -0.0642 0.8707
vn -0.4918 0.0000 0.8707
vn -0.8633 0.0000 0.5047
vn -0.9914 -0.1305 0.0000
vn -1.0000 0.0000 0.0000
vn -0.8633 0.0000 -0.5047
vn -0.4876 -0.0642 -0.8707
vn -0.4918 0.0000 -0.8707
vn 0.0108 0.0000 -0.9999
vn 0.0107 0.0014 -0.9999
vn 0.5080 0.0000 -0.8614
vn 0.5036 0.0663 -0.8614
vn 0.8686 0.0000 -0.4954
vn 0.8612 0.1134 -0.4954
vn 0.9659 0.2588 0.0000
vn 0.9914 0.1305 0.0000
vn 0.8390 0.2248 0.4954
vn 0.4907 0.1315 0.8614
vn 0.0104 0.0028 0.9999
vn -0.4751 -0.1273 0.8707
vn -0.8559 -0.1127 0.5047
vn -0.9659 -0.2588 0.0000
vn -0.8559 -0.1127 -0.5047
vn -0.4751 -0.1273 -0.8707
vn 0.0104 0.0028 -0.9999
vn 0.4907 0.1315 -0.8614
vn 0.8390 0.2248 -0.4954
vn 0.8025 0.3324 0.4954
vn 0.4693 0.1944 0.8614
vn -0.4544 -0.1882 0.8707
vn -0.7975 -0.3304 0.5047
vn -0.8339 -0.2234 0.5047
vn -0.9239 -0.3827 0.0000
vn -0.8339 -0.2234 -0.5047
vn -0.7975 -0.3304 -0.5047
vn -0.4544 -0.1882 -0.8707
vn 0.4693 0.1944 -0.8614
vn 0.8025 0.3324 -0.4954
vn 0.9239 0.3827 0.0000
vn 0.7523 0.4343 0.4954
vn 0.0093 0.0054 0.9999
vn 0.0099 0.0041 0.9999
vn -0.4259 -0.2459 0.8707
vn -0.7476 -0.4316 0.5047
vn -0.7476 -0.4316 -0.5047
vn 0.0093 0.0054 -0.9999
vn 0.0099 0.0041 -0.9999
vn 0.7523 0.4343 -0.4954
vn 0.7933 0.6088 0.0000
vn 0.8660 0.5000 0.0000
vn 0.4030 0.3092 0.8614
vn 0.4399 0.2540 0.8614
vn 0.0085 0.0066 0.9999
vn -0.6849 -0.5255 0.5047
vn -0.8660 -0.5000 0.0000
vn -0.6849 -0.5255 -0.5047
vn -0.4259 -0.2459 -0.8707
vn 0.0085 0.0066 -0.9999
vn 0.4399 0.2540 -0.8614
vn 0.4030 0.3092 -0.8614
vn 0.7071 0.7071 0.0000
vn 0.6891 0.5288 0.4954
vn 0.6142 0.6142 0.4954
vn 0.3592 0.3592 0.8614
vn 0.0076 0.0076 0.9999
vn -0.3902 -0.2994 0.8707
vn -0.6104 -0.6104 0.5047
vn -0.7933 -0.6088 0.0000
vn -0.7071 -0.7071 0.0000
vn -0.6104 -0.6104 -0.5047
vn -0.3902 -0.2994 -0.8707
vn 0.0076 0.0076 -0.9999
vn 0.3592 0.3592 -0.8614
vn 0.6142 0.6142 -0.4954
vn 0.6891 0.5288 -0.4954
vn 0.5288 0.6891 0.4954
vn 0.3092 0.4030 0.8614
vn 0.0066 0.0085 0.9999
vn -0.3478 -0.3478 0.8707
vn -0.2994 -0.3902 0.8707
vn -0.5255 -0.6849 0.5047
vn -0.5255 -0.6849 -0.5047
vn -0.2994 -0.3902 -0.8707
vn -0.3478 -0.3478 -0.8707
vn 0.0066 0.0085 -0.9999
vn 0.3092 0.4030 -0.8614
vn 0.5288 0.6891 -0.4954
vn 0.6088 0.7933 0.0000
vn 0.4343 0.7523 0.4954
vn 0.2540 0.4399 0.8614
vn 0.0054 0.0093 0.9999
vn -0.2459 -0.4259 0.8707
vn -0.4316 -0.7476 0.5047
vn -0.5000 -0.8660 0.0000
vn -0.6088 -0.7933 0.0000
vn -0.4316 -0.7476 -0.5047
vn -0.2459 -0.4259 -0.8707
vn 0.0054 0.0093 -0.9999
vn 0.2540 0.4399 -0.8614
vn 0.4343 0.7523 -0.4954
vn 0.3827 0.9239 0.0000
vn 0.5000 0.8660 0.0000
vn 0.3324 0.8025 0.4954
vn 0.1944 0.4693 0.8614
vn 0.0041 0.0099 0.9999
vn -0.1882 -0.4544 0.8707
vn -0.3304 -0.7975 0.5047
vn -0.3304 -0.7975 -0.5047
vn -0.1882 -0.4544 -0.8707
vn 0.0041 0.0099 -0.9999
vn 0.1944 0.4693 -0.8614
vn 0.3324 0.8025 -0.4954
vn 0.2588 0.9659 0.0000
vn 0.1315 0.4907 0.8614
vn 0.0028 0.0104 0.9999
vn -0.2234 -0.8339 0.5047
vn -0.3827 -0.9239 0.0000
vn -0.2234 -0.8339 -0.5047
vn -0.1273 -0.4751 -0.8707
vn 0.0028 0.0104 -0.9999
vn 0.1315 0.4907 -0.8614
vn 0.1305 0.9914 0.0000
vn 0.2248 0.8390 0.4954
vn 0.0663 0.5036 0.8614
vn 0.0014 0.0107 0.9999
vn -0.1273 -0.4751 0.8707
vn -0.0642 -0.4876 0.8707
vn -0.1127 -0.8559 0.5047
vn -0.2588 -0.9659 0.0000
vn -0.1127 -0.8559 -0.5047
vn -0.0642 -0.4876 -0.8707
vn 0.0014 0.0107 -0.9999
vn 0.0663 0.5036 -0.8614
vn 0.2248 0.8390 -0.4954
vn 0.0000 1.0000 0.0000
vn 0.1134 0.8612 0.4954
vn 0.0000 0.8686 0.4954
vn 0.0000 0.5080 0.8614
vn 0.0000 -0.4918 0.8707
vn 0.0000 -0.8633 0.5047
vn -0.1305 -0.9914 0.0000
vn 0.0000 -1.0000 0.0000
vn 0.0000 -0.8633 -0.5047
vn 0.0000 -0.4918 -0.8707
vn 0.0000 0.5080 -0.8614
vn 0.1134 0.8612 -0.4954
vn 0.0000 0.8686 -0.4954
vn -0.1305 0.9914 0.0000
vn -0.1134 0.8612 0.4954
vn -0.0663 0.5036 0.8614
vn 0.0000 0.0108 0.9999
vn -0.0014 0.0107 0.9999
vn 0.1127 -0.8559 0.5047
vn 0.1305 -0.9914 0.0000
vn 0.1127 -0.8559 -0.5047
vn -0.0014 0.0107 -0.9999
vn 0.0000 0.0108 -0.9999
vn -0.0663 0.5036 -0.8614
vn -0.1134 0.8612 -0.4954
vn -0.2248 0.8390 0.4954
vn -0.1315 0.4907 0.8614
vn -0.0028 0.0104 0.9999
vn 0.1273 -0.4751 0.8707
vn 0.0642 -0.4876 0.8707
vn 0.2234 -0.8339 0.5047
vn 0.2234 -0.8339 -0.5047
vn 0.0642 -0.4876 -0.8707
vn 0.1273 -0.4751 -0.8707
vn -0.0028 0.0104 -0.9999
vn -0.1315 0.4907 -0.8614
vn -0.2248 0.8390 -0.4954
vn -0.3827 0.9239 0.0000
vn -0.2588 0.9659 0.0000
vn -0.3324 0.8025 0.4954
vn -0.0041 0.0099 0.9999
vn 0.1882 -0.4544 0.8707
vn 0.3304 -0.7975 0.5047
vn 0.2588 -0.9659 0.0000
vn 0.3304 -0.7975 -0.5047
vn 0.1882 -0.4544 -0.8707
vn -0.0041 0.0099 -0.9999
vn -0.3324 0.8025 -0.4954
vn -0.5000 0.8660 0.0000
vn -0.4343 0.7523 0.4954
vn -0.1944 0.4693 0.8614
vn -0.2540 0.4399 0.8614
vn 0.2459 -0.4259 0.8707
vn 0.4316 -0.7476 0.5047
vn 0.5000 -0.8660 0.0000
vn 0.3827 -0.9239 0.0000
vn 0.4316 -0.7476 -0.5047
vn 0.2459 -0.4259 -0.8707
vn -0.2540 0.4399 -0.8614
vn -0.1944 0.4693 -0.8614
vn -0.4343 0.7523 -0.4954
vn -0.6088 0.7933 0.0000
vn -0.5288 0.6891 0.4954
vn -0.3092 0.4030 0.8614
vn -0.0054 0.0093 0.9999
vn -0.0066 0.0085 0.9999
vn 0.2994 -0.3902 0.8707
vn 0.6088 -0.7933 0.0000
vn 0.2994 -0.3902 -0.8707
vn -0.0066 0.0085 -0.9999
vn -0.0054 0.0093 -0.9999
vn -0.3092 0.4030 -0.8614
vn -0.5288 0.6891 -0.4954
vn -0.6142 0.6142 0.4954
vn -0.0076 0.0076 0.9999
vn 0.3478 -0.3478 0.8707
vn 0.5255 -0.6849 0.5047
vn 0.7071 -0.7071 0.0000
vn 0.5255 -0.6849 -0.5047
vn 0.3478 -0.3478 -0.8707
vn -0.0076 0.0076 -0.9999
vn -0.3592 0.3592 -0.8614
vn -0.6142 0.6142 -0.4954
vn -0.7071 0.7071 0.0000
vn -0.6891 0.5288 0.4954
vn -0.3592 0.3592 0.8614
vn -0.4030 0.3092 0.8614
vn 0.3902 -0.2994 0.8707
vn 0.6849 -0.5255 0.5047
vn 0.6104 -0.6104 0.5047
vn 0.7933 -0.6088 0.0000
vn 0.6104 -0.6104 -0.5047
vn 0.6849 -0.5255 -0.5047
vn 0.3902 -0.2994 -0.8707
vn -0.4030 0.3092 -0.8614
vn -0.6891 0.5288 -0.4954
vn -0.7933 0.6088 0.0000
vn -0.7523 0.4343 0.4954
vn -0.0093 0.0054 0.9999
vn -0.0085 0.0066 0.9999
vn 0.4259 -0.2459 0.8707
vn 0.7476 -0.4316 0.5047
vn 0.7476 -0.4316 -0.5047
vn 0.4259 -0.2459 -0.8707
vn -0.0085 0.0066 -0.9999
vn -0.0093 0.0054 -0.9999
vn -0.7523 0.4343 -0.4954
vn -0.8660 0.5000 0.0000
vn -0.8025 0.3324 0.4954
vn -0.4399 0.2540 0.8614
vn -0.0099 0.0041 0.9999
vn 0.4544 -0.1882 0.8707
vn 0.7975 -0.3304 0.5047
vn 0.8660 -0.5000 0.0000
vn 0.7975 -0.3304 -0.5047
vn 0.4544 -0.1882 -0.8707
vn -0.0099 0.0041 -0.9999
vn -0.4399 0.2540 -0.8614
vn -0.8025 0.3324 -0.4954
vn -0.9659 0.2588 0.0000
vn -0.9239 0.3827 0.0000
vn -0.4907 0.1315 0.8614
vn -0.4693 0.1944 0.8614
vn 0.4751 -0.1273 0.8707
vn 0.8339 -0.2234 0.5047
vn 0.9659 -0.2588 0.0000
vn 0.9239 -0.3827 0.0000
vn 0.8339 -0.2234 -0.5047
vn 0.4751 -0.1273 -0.8707
vn -0.0104 0.0028 -0.9999
vn -0.4693 0.1944 -0.8614
vn -0.4907 0.1315 -0.8614
vn -0.8390 0.2248 -0.4954
vn -0.9914 0.1305 0.0000
vn -0.8390 0.2248 0.4954
vn -0.8612 0.1134 0.4954
vn -0.5036 0.0663 0.8614
vn -0.0104 0.0028 0.9999
vn -0.0107 0.0014 0.9999
vn 0.4876 -0.0642 0.8707
vn 0.9914 -0.1305 0.0000
vn 0.4876 -0.0642 -0.8707
vn -0.0107 0.0014 -0.9999
vn -0.5036 0.0663 -0.8614
vn -0.8612 0.1134 -0.4954
vn -0.8686 0.0000 0.4954
vn -0.5080 0.0000 0.8614
vn -0.0108 0.0000 0.9999
vn 0.4918 0.0000 0.8707
vn 0.8559 -0.1127 0.5047
vn 0.8633 0.0000 0.5047
vn 0.8559 -0.1127 -0.5047
vn 0.4918 0.0000 -0.8707
vn -0.0108 0.0000 -0.9999
vn -0.5080 0.0000 -0.8614
vn -0.8686 0.0000 -0.4954
vn -0.8612 -0.1134 0.4954
vn -0.5036 -0.0663 0.8614
vn -0.0107 -0.0014 0.9999
vn 0.8559 0.1127 0.5047
vn 0.8633 0.0000 -0.5047
vn 0.8559 0.1127 -0.5047
vn -0.0107 -0.0014 -0.9999
vn -0.5036 -0.0663 -0.8614
vn -0.8612 -0.1134 -0.4954
vn -0.8390 -0.2248 0.4954
vn -0.4907 -0.1315 0.8614
vn -0.0104 -0.0028 0.9999
vn 0.4751 0.1273 0.8707
vn 0.4876 0.0642 0.8707
vn 0.8339 0.2234 0.5047
vn 0.8339 0.2234 -0.5047
vn 0.4876 0.0642 -0.8707
vn 0.4751 0.1273 -0.8707
vn -0.0104 -0.0028 -0.9999
vn -0.4907 -0.1315 -0.8614
vn -0.8390 -0.2248 -0.4954
vn -0.8025 -0.3324 0.4954
vn -0.0099 -0.0041 0.9999
vn 0.4544 0.1882 0.8707
vn 0.7975 0.3303 0.5047
vn 0.7975 0.3303 -0.5047
vn 0.4544 0.1882 -0.8707
vn -0.0099 -0.0041 -0.9999
vn -0.8025 -0.3324 -0.4954
vn -0.7523 -0.4343 0.4954
vn -0.4693 -0.1944 0.8614
vn -0.4399 -0.2540 0.8614
vn -0.0093 -0.0054 0.9999
vn 0.4259 0.2459 0.8707
vn 0.4259 0.2459 -0.8707
vn -0.4399 -0.2540 -0.8614
vn -0.4693 -0.1944 -0.8614
vn -0.7523 -0.4343 -0.4954
vn -0.6891 -0.5288 0.4954
vn -0.4030 -0.3092 0.8614
vn -0.0085 -0.0066 0.9999
vn 0.6849 0.5255 0.5047
vn 0.7476 0.4316 0.5047
vn 0.7476 0.4316 -0.5047
vn 0.6849 0.5255 -0.5047
vn 0.3902 0.2994 -0.8707
vn -0.0093 -0.0054 -0.9999
vn -0.4030 -0.3092 -0.8614
vn -0.6891 -0.5288 -0.4954
vn -0.3592 -0.3592 0.8614
vn -0.0076 -0.0076 0.9999
vn 0.3902 0.2994 0.8707
vn 0.3478 0.3478 0.8707
vn 0.6104 0.6104 0.5047
vn 0.6104 0.6104 -0.5047
vn 0.3478 0.3478 -0.8707
vn -0.0076 -0.0076 -0.9999
vn -0.0085 -0.0066 -0.9999
vn -0.3592 -0.3592 -0.8614
vn -0.6142 -0.6142 0.4954
vn -0.3092 -0.4030 0.8614
vn -0.0066 -0.0085 0.9999
vn 0.2994 0.3902 0.8707
vn 0.5255 0.6849 0.5047
vn 0.5255 0.6849 -0.5047
vn 0.2994 0.3902 -0.8707
vn -0.0066 -0.0085 -0.9999
vn -0.3092 -0.4030 -0.8614
vn -0.6142 -0.6142 -0.4954
vn -0.5288 -0.6891 -0.4954
vn -0.4343 -0.7523 0.4954
vn -0.5288 -0.6891 0.4954
vn -0.0054 -0.0093 0.9999
vn 0.2459 0.4259 0.8707
vn 0.4316 0.7476 0.5047
vn 0.4316 0.7476 -0.5047
vn 0.2459 0.4259 -0.8707
vn -0.0054 -0.0093 -0.9999
vn -0.2540 -0.4399 -0.8614
vn -0.4343 -0.7523 -0.4954
vn -0.3324 -0.8025 0.4954
vn -0.2540 -0.4399 0.8614
vn -0.0041 -0.0099 0.9999
vn 0.1882 0.4544 0.8707
vn 0.3304 0.7975 0.5047
vn 0.3304 0.7975 -0.5047
vn 0.1882 0.4544 -0.8707
vn -0.0041 -0.0099 -0.9999
vn -0.1944 -0.4693 -0.8614
vn -0.3324 -0.8025 -0.4954
vn -0.2248 -0.8390 0.4954
vn -0.1944 -0.4693 0.8614
vn -0.1315 -0.4907 0.8614
vn 0.1273 0.4751 0.8707
vn 0.2234 0.8339 0.5047
vn 0.2234 0.8339 -0.5047
vn 0.1273 0.4751 -0.8707
vn -0.1315 -0.4907 -0.8614
vn -0.2248 -0.8390 -0.4954
vn -0.1134 -0.8612 0.4954
vn -0.0663 -0.5036 0.8614
vn -0.0028 -0.0104 0.9999
vn -0.0014 -0.0107 0.9999
vn 0.1127 0.8559 0.5047
vn 0.1127 0.8559 -0.5047
vn -0.0014 -0.0107 -0.9999
vn -0.0028 -0.0104 -0.9999
vn -0.0663 -0.5036 -0.8614
vn -0.1134 -0.8612 -0.4954
vn 0.0000 -0.8686 0.4954
vn 0.0000 -0.5080 0.8614
vn 0.0000 0.4918 0.8707
vn 0.0642 0.4876 0.8707
vn 0.0000 0.8633 -0.5047
vn 0.0642 0.4876 -0.8707
vn 0.0000 0.4918 -0.8707
vn 0.0000 -0.0108 -0.9999
vn 0.0000 -0.8686 -0.4954
vn 0.1134 -0.8612 0.4954
vn 0.0014 -0.0107 0.9999
vn 0.0000 -0.0108 0.9999
vn -0.0642 0.4876 0.8707
vn 0.0000 0.8633 0.5047
vn -0.1127 0.8559 0.5047
vn -0.0642 0.4876 -0.8707
vn 0.0014 -0.0107 -0.9999
vn 0.0000 -0.5080 -0.8614
vn 0.0663 -0.5036 -0.8614
vn 0.1134 -0.8612 -0.4954
vn 0.2248 -0.8390 0.4954
vn 0.0663 -0.5036 0.8614
vn 0.1315 -0.4907 0.8614
vn 0.0028 -0.0104 0.9999
vn -0.2234 0.8339 0.5047
vn -0.1127 0.8559 -0.5047
vn -0.2234 0.8339 -0.5047
vn 0.0028 -0.0104 -0.9999
vn 0.1315 -0.4907 -0.8614
vn 0.2248 -0.8390 -0.4954
vn 0.3324 -0.8025 0.4954
vn 0.1944 -0.4693 0.8614
vn -0.1882 0.4544 0.8707
vn -0.1273 0.4751 0.8707
vn -0.3304 0.7975 -0.5047
vn -0.1273 0.4751 -0.8707
vn -0.1882 0.4544 -0.8707
vn 0.0041 -0.0099 -0.9999
vn 0.3324 -0.8025 -0.4954
vn 0.2540 -0.4399 0.8614
vn 0.0054 -0.0093 0.9999
vn 0.0041 -0.0099 0.9999
vn -0.2459 0.4259 0.8707
vn -0.4316 0.7476 0.5047
vn -0.3304 0.7975 0.5047
vn -0.4316 0.7476 -0.5047
vn -0.2459 0.4259 -0.8707
vn 0.0054 -0.0093 -0.9999
vn 0.1944 -0.4693 -0.8614
vn 0.2540 -0.4399 -0.8614
vn 0.4343 -0.7523 -0.4954
vn 0.5288 -0.6891 0.4954
vn 0.4343 -0.7523 0.4954
vn 0.3092 -0.4030 0.8614
vn 0.0066 -0.0085 0.9999
vn -0.2994 0.3902 0.8707
vn -0.5255 0.6849 0.5047
vn -0.5255 0.6849 -0.5047
vn -0.2994 0.3902 -0.8707
vn 0.0066 -0.0085 -0.9999
vn 0.3092 -0.4030 -0.8614
vn 0.5288 -0.6891 -0.4954
vn 0.6142 -0.6142 0.4954
vn 0.0076 -0.0076 0.9999
vn -0.3478 0.3478 0.8707
vn -0.6104 0.6104 0.5047
vn -0.6104 0.6104 -0.5047
vn -0.3478 0.3478 -0.8707
vn 0.0076 -0.0076 -0.9999
vn 0.3592 -0.3592 -0.8614
vn 0.6142 -0.6142 -0.4954
vn 0.6891 -0.5288 0.4954
vn 0.3592 -0.3592 0.8614
vn 0.0085 -0.0066 0.9999
vn -0.3902 0.2994 0.8707
vn -0.3902 0.2994 -0.8707
vn 0.0085 -0.0066 -0.9999
vn 0.6891 -0.5288 -0.4954
vn 0.7523 -0.4343 0.4954
vn 0.4030 -0.3092 0.8614
vn 0.4399 -0.2540 0.8614
vn -0.4259 0.2459 0.8707
vn -0.6849 0.5255 0.5047
vn -0.6849 0.5255 -0.5047
vn -0.4259 0.2459 -0.8707
vn 0.0093 -0.0054 -0.9999
vn 0.4030 -0.3092 -0.8614
vn 0.7523 -0.4343 -0.4954
vn 0.8025 -0.3324 0.4954
vn 0.4693 -0.1944 0.8614
vn 0.0099 -0.0041 0.9999
vn 0.0093 -0.0054 0.9999
vn -0.4544 0.1882 0.8707
vn -0.7476 0.4316 0.5047
vn -0.7476 0.4316 -0.5047
vn -0.7975 0.3304 -0.5047
vn -0.4544 0.1882 -0.8707
vn 0.0099 -0.0041 -0.9999
vn 0.4399 -0.2540 -0.8614
vn 0.4693 -0.1944 -0.8614
vn 0.8025 -0.3324 -0.4954
vn 0.8390 -0.2248 0.4954
vn 0.4907 -0.1315 0.8614
vn 0.0104 -0.0028 0.9999
vn -0.4751 0.1273 0.8707
vn -0.7975 0.3304 0.5047
vn -0.8339 0.2234 0.5047
vn -0.8339 0.2234 -0.5047
vn -0.4751 0.1273 -0.8707
vn 0.4907 -0.1315 -0.8614
vn 0.5036 -0.0663 0.8614
vn 0.0107 -0.0014 0.9999
vn -0.4876 0.0642 0.8707
vn -0.8559 0.1127 0.5047
vn -0.8559 0.1127 -0.5047
vn -0.4876 0.0642 -0.8707
vn 0.0104 -0.0028 -0.9999
vn 0.0107 -0.0014 -0.9999
vn 0.5036 -0.0663 -0.8614
vn 0.8390 -0.2248 -0.4954
vn 0.8612 -0.1134 -0.4954
vn 0.8612 -0.1134 0.4954
s 1
f 1/1/1 14/2/2 2/3/3
f 2/3/3 15/4/4 3/5/5
f 3/5/5 16/6/6 4/7/7
f 4/7/7 17/8/8 5/9/9
f 17/8/8 6/10/10 5/9/9
f 6/10/10 19/11/11 7/12/12
f 19/13/11 8/14/13 7/15/12
f 8/14/13 21/16/14 9/17/15
f 21/16/14 10/18/16 9/17/15
f 22/19/17 11/20/18 10/18/16
f 23/21/19 12/22/20 11/20/18
f 24/23/21 1/1/1 12/22/20
f 25/24/22 14/2/2 13/25/23
f 26/26/24 15/4/4 14/2/2
f 27/27/25 16/6/6 15/4/4
f 28/28/26 17/8/8 16/6/6
f 29/29/27 18/30/28 17/8/8
f 18/30/28 31/31/29 19/11/11
f 31/32/29 20/33/30 19/13/11
f 20/33/30 33/34/31 21/16/14
f 21/16/14 34/35/32 22/19/17
f 22/19/17 35/36/33 23/21/19
f 23/21/19 36/37/34 24/23/21
f 24/23/21 25/24/22 13/25/23
f 25/24/22 38/38/35 26/26/24
f 38/38/35 27/27/25 26/26/24
f 39/39/36 28/28/26 27/27/25
f 28/28/26 41/40/37 29/29/27
f 29/29/27 42/41/38 30/42/39
f 30/42/39 43/43/40 31/31/29
f 43/44/40 32/45/41 31/32/29
f 44/46/42 33/34/31 32/45/41
f 45/47/43 34/35/32 33/34/31
f 34/35/32 47/48/44 35/36/33
f 47/48/44 36/37/34 35/36/33
f 48/49/45 25/24/22 36/37/34
f 37/50/46 50/51/47 38/38/35
f 50/51/47 39/39/36 38/38/35
f 39/39/36 52/52/48 40/53/49
f 52/52/48 41/40/37 40/53/49
f 53/54/50 42/41/38 41/40/37
f 54/55/51 43/43/40 42/41/38
f 43/44/40 56/56/52 44/46/42
f 56/56/52 45/47/43 44/46/42
f 45/47/43 58/57/53 46/58/54
f 58/57/53 47/48/44 46/58/54
f 47/48/44 60/59/55 48/49/45
f 60/59/55 37/50/46 48/49/45
f 61/60/56 50/51/47 49/61/57
f 50/51/47 63/62/58 51/63/59
f 63/62/58 52/52/48 51/63/59
f 64/64/60 53/54/50 52/52/48
f 53/54/50 66/65/61 54/55/51
f 66/65/61 55/66/62 54/55/51
f 55/67/62 68/68/63 56/56/52
f 68/68/63 57/69/64 56/56/52
f 57/69/64 70/70/65 58/57/53
f 70/70/65 59/71/66 58/57/53
f 71/72/67 60/59/55 59/71/66
f 60/59/55 61/60/56 49/61/57
f 73/73/68 62/74/69 61/60/56
f 74/75/70 63/62/58 62/74/69
f 75/76/71 64/64/60 63/62/58
f 76/77/72 65/78/73 64/64/60
f 65/78/73 78/79/74 66/65/61
f 78/79/74 67/80/75 66/65/61
f 79/81/76 68/68/63 67/82/75
f 80/83/77 69/84/78 68/68/63
f 69/84/78 82/85/79 70/70/65
f 70/70/65 83/86/80 71/72/67
f 71/72/67 84/87/81 72/88/82
f 72/88/82 73/73/68 61/60/56
f 73/73/68 86/89/83 74/75/70
f 74/75/70 87/90/84 75/76/71
f 87/90/84 76/77/72 75/76/71
f 88/91/85 77/92/86 76/77/72
f 89/93/87 78/79/74 77/92/86
f 90/94/88 79/95/76 78/79/74
f 79/81/76 92/96/89 80/83/77
f 80/83/77 93/97/90 81/98/91
f 81/98/91 94/99/92 82/85/79
f 82/85/79 95/100/93 83/86/80
f 95/100/93 84/87/81 83/86/80
f 96/101/94 73/73/68 84/87/81
f 85/102/95 98/103/96 86/89/83
f 86/89/83 99/104/97 87/90/84
f 87/90/84 100/105/98 88/91/85
f 88/91/85 101/106/99 89/93/87
f 89/93/87 102/107/100 90/94/88
f 90/94/88 103/108/101 91/109/102
f 103/110/101 92/96/89 91/111/102
f 104/112/103 93/97/90 92/96/89
f 105/113/104 94/99/92 93/97/90
f 106/114/105 95/100/93 94/99/92
f 107/115/106 96/101/94 95/100/93
f 108/116/107 85/102/95 96/101/94
f 109/117/108 98/103/96 97/118/109
f 110/119/110 99/104/97 98/103/96
f 111/120/111 100/105/98 99/104/97
f 112/121/112 101/106/99 100/105/98
f 113/122/113 102/107/100 101/106/99
f 114/123/114 103/108/101 102/107/100
f 103/110/101 116/124/115 104/112/103
f 104/112/103 117/125/116 105/113/104
f 105/113/104 118/126/117 106/114/105
f 106/114/105 119/127/118 107/115/106
f 107/115/106 120/128/119 108/116/107
f 120/128/119 97/118/109 108/116/107
f 121/129/120 110/119/110 109/117/108
f 110/119/110 123/130/121 111/120/111
f 111/120/111 124/131/122 112/121/112
f 124/131/122 113/122/113 112/121/112
f 113/122/113 126/132/123 114/123/114
f 126/132/123 115/133/124 114/123/114
f 115/134/124 128/135/125 116/124/115
f 128/135/125 117/125/116 116/124/115
f 129/136/126 118/126/117 117/125/116
f 130/137/127 119/127/118 118/126/117
f 131/138/128 120/128/119 119/127/118
f 120/128/119 121/129/120 109/117/108
f 133/139/129 122/140/130 121/129/120
f 122/140/130 135/141/131 123/130/121
f 135/141/131 124/131/122 123/130/121
f 136/142/132 125/143/133 124/131/122
f 137/144/134 126/132/123 125/143/133
f 138/145/135 127/146/136 126/132/123
f 127/147/136 140/148/137 128/135/125
f 128/135/125 141/149/138 129/136/126
f 129/136/126 142/150/139 130/137/127
f 142/150/139 131/138/128 130/137/127
f 143/151/140 132/152/141 131/138/128
f 132/152/141 133/139/129 121/129/120
f 145/153/142 134/154/143 133/139/129
f 146/155/144 135/141/131 134/154/143
f 147/156/145 136/142/132 135/141/131
f 136/142/132 149/157/146 137/144/134
f 137/144/134 150/158/147 138/145/135
f 150/158/147 139/159/148 138/145/135
f 151/160/149 140/148/137 139/161/148
f 152/162/150 141/149/138 140/148/137
f 153/163/151 142/150/139 141/149/138
f 142/150/139 155/164/152 143/151/140
f 155/164/152 144/165/153 143/151/140
f 156/166/154 133/139/129 144/165/153
f 157/167/155 146/155/144 145/153/142
f 158/168/156 147/156/145 146/155/144
f 159/169/157 148/170/158 147/156/145
f 160/171/159 149/157/146 148/170/158
f 149/157/146 162/172/160 150/158/147
f 162/172/160 151/173/149 150/158/147
f 163/174/161 152/162/150 151/160/149
f 164/175/162 153/163/151 152/162/150
f 153/163/151 166/176/163 154/177/164
f 154/177/164 167/178/165 155/164/152
f 155/164/152 168/179/166 156/166/154
f 156/166/154 157/167/155 145/153/142
f 157/167/155 170/180/167 158/168/156
f 158/168/156 171/181/168 159/169/157
f 159/169/157 172/182/169 160/171/159
f 160/171/159 173/183/170 161/184/171
f 161/184/171 174/185/172 162/172/160
f 174/185/172 163/186/161 162/172/160
f 163/174/161 176/187/173 164/175/162
f 176/187/173 165/188/174 164/175/162
f 177/189/175 166/176/163 165/188/174
f 178/190/176 167/178/165 166/176/163
f 179/191/177 168/179/166 167/178/165
f 180/192/178 157/167/155 168/179/166
f 181/193/179 170/180/167 169/194/180
f 182/195/181 171/181/168 170/180/167
f 171/181/168 184/196/182 172/182/169
f 184/196/182 173/183/170 172/182/169
f 185/197/183 174/185/172 173/183/170
f 186/198/184 175/199/185 174/185/172
f 175/200/185 188/201/186 176/187/173
f 176/187/173 189/202/187 177/189/175
f 177/189/175 190/203/188 178/190/176
f 190/203/188 179/191/177 178/190/176
f 179/191/177 192/204/189 180/192/178
f 192/204/189 169/194/180 180/192/178
f 193/205/190 182/195/181 181/193/179
f 194/206/191 183/207/192 182/195/181
f 195/208/193 184/196/182 183/207/192
f 184/196/182 197/209/194 185/197/183
f 185/197/183 198/210/195 186/198/184
f 186/198/184 199/211/196 187/212/197
f 199/213/196 188/201/186 187/214/197
f 200/215/198 189/202/187 188/201/186
f 201/216/199 190/203/188 189/202/187
f 190/203/188 203/217/200 191/218/201
f 203/217/200 192/204/189 191/218/201
f 204/219/202 181/193/179 192/204/189
f 205/220/203 194/206/191 193/205/190
f 206/221/204 195/208/193 194/206/191
f 207/222/205 196/223/206 195/208/193
f 208/224/207 197/209/194 196/223/206
f 209/225/208 198/210/195 197/209/194
f 198/210/195 211/226/209 199/211/196
f 211/227/209 200/215/198 199/213/196
f 200/215/198 213/228/210 201/216/199
f 201/216/199 214/229/211 202/230/212
f 202/230/212 215/231/213 203/217/200
f 203/217/200 216/232/214 204/219/202
f 204/219/202 205/220/203 193/205/190
f 205/220/203 218/233/215 206/221/204
f 218/233/215 207/222/205 206/221/204
f 207/222/205 220/234/216 208/224/207
f 220/234/216 209/225/208 208/224/207
f 221/235/217 210/236/218 209/225/208
f 210/236/218 223/237/219 211/226/209
f 223/238/219 212/239/220 211/227/209
f 212/239/220 225/240/221 213/228/210
f 213/228/210 226/241/222 214/229/211
f 226/241/222 215/231/213 214/229/211
f 227/242/223 216/232/214 215/231/213
f 228/243/224 205/220/203 216/232/214
f 217/244/225 230/245/226 218/233/215
f 230/245/226 219/246/227 218/233/215
f 231/247/228 220/234/216 219/246/227
f 220/234/216 233/248/229 221/235/217
f 221/235/217 234/249/230 222/250/231
f 222/250/231 235/251/232 223/237/219
f 235/252/232 224/253/233 223/238/219
f 236/254/234 225/240/221 224/253/233
f 237/255/235 226/241/222 225/240/221
f 226/241/222 239/256/236 227/242/223
f 227/242/223 240/257/237 228/243/224
f 240/257/237 217/244/225 228/243/224
f 229/258/238 242/259/239 230/245/226
f 242/259/239 231/247/228 230/245/226
f 231/247/228 244/260/240 232/261/241
f 244/260/240 233/248/229 232/261/241
f 245/262/242 234/249/230 233/248/229
f 246/263/243 235/251/232 234/249/230
f 235/252/232 248/264/244 236/254/234
f 236/254/234 249/265/245 237/255/235
f 249/265/245 238/266/246 237/255/235
f 250/267/247 239/256/236 238/266/246
f 239/256/236 252/268/248 240/257/237
f 252/268/248 229/258/238 240/257/237
f 241/269/249 254/270/250 242/259/239
f 254/270/250 243/271/251 242/259/239
f 243/271/251 256/272/252 244/260/240
f 244/260/240 257/273/253 245/262/242
f 257/273/253 246/263/243 245/262/242
f 258/274/254 247/275/255 246/263/243
f 247/276/255 260/277/256 248/264/244
f 260/277/256 249/265/245 248/264/244
f 261/278/257 250/267/247 249/265/245
f 262/279/258 251/280/259 250/267/247
f 251/280/259 264/281/260 252/268/248
f 264/281/260 241/269/249 252/268/248
f 265/282/261 254/270/250 253/283/262
f 254/270/250 267/284/263 255/285/264
f 267/284/263 256/272/252 255/285/264
f 256/272/252 269/286/265 257/273/253
f 257/273/253 270/287/266 258/274/254
f 258/274/254 271/288/267 259/289/268
f 271/290/267 260/277/256 259/291/268
f 272/292/269 261/278/257 260/277/256
f 273/293/270 262/279/258 261/278/257
f 274/294/271 263/295/272 262/279/258
f 275/296/273 264/281/260 263/295/272
f 276/297/274 253/283/262 264/281/260
f 277/298/275 266/299/276 265/282/261
f 278/300/277 267/284/263 266/299/276
f 279/301/278 268/302/279 267/284/263
f 280/303/280 269/286/265 268/302/279
f 281/304/281 270/287/266 269/286/265
f 270/287/266 283/305/282 271/288/267
f 283/306/282 272/292/269 271/290/267
f 272/292/269 285/307/283 273/293/270
f 273/293/270 286/308/284 274/294/271
f 274/294/271 287/309/285 275/296/273
f 275/296/273 288/310/286 276/297/274
f 276/297/274 277/298/275 265/282/261
f 277/298/275 290/311/287 278/300/277
f 278/300/277 291/312/288 279/301/278
f 279/301/278 292/313/289 280/303/280
f 292/313/289 281/304/281 280/303/280
f 293/314/290 282/315/291 281/304/281
f 294/316/292 283/305/282 282/315/291
f 295/317/1 284/318/293 283/306/282
f 284/318/293 297/319/294 285/307/283
f 297/319/294 286/308/284 285/307/283
f 298/320/295 287/309/285 286/308/284
f 299/321/296 288/310/286 287/309/285
f 300/322/297 277/298/275 288/310/286
f 301/323/11 290/324/287 289/325/12
f 302/326/298 291/327/288 290/324/287
f 303/328/299 292/329/289 291/327/288
f 304/330/300 293/331/290 292/329/289
f 293/331/290 306/332/301 294/333/292
f 306/332/301 295/334/1 294/333/292
f 307/335/23 296/336/302 295/337/1
f 308/338/303 297/339/294 296/336/302
f 297/339/294 310/340/304 298/341/295
f 298/341/295 311/342/305 299/343/296
f 299/343/296 312/344/306 300/345/297
f 300/345/297 301/323/11 289/325/12
f 301/323/11 314/346/307 302/326/298
f 302/326/298 315/347/308 303/328/299
f 303/328/299 316/348/309 304/330/300
f 304/330/300 317/349/310 305/350/311
f 305/350/311 318/351/312 306/332/301
f 318/351/312 307/352/23 306/332/301
f 307/335/23 320/353/313 308/338/303
f 320/353/313 309/354/314 308/338/303
f 321/355/315 310/340/304 309/354/314
f 322/356/316 311/342/305 310/340/304
f 323/357/317 312/344/306 311/342/305
f 324/358/318 301/323/11 312/344/306
f 325/359/40 314/346/307 313/360/29
f 326/361/319 315/347/308 314/346/307
f 315/347/308 328/362/320 316/348/309
f 328/362/320 317/349/310 316/348/309
f 329/363/321 318/351/312 317/349/310
f 330/364/322 319/365/22 318/351/312
f 319/366/22 332/367/323 320/353/313
f 320/353/313 333/368/324 321/355/315
f 321/355/315 334/369/325 322/356/316
f 334/369/325 323/357/317 322/356/316
f 323/357/317 336/370/326 324/358/318
f 336/370/326 313/360/29 324/358/318
f 337/371/62 326/361/319 325/359/40
f 338/372/327 327/373/328 326/361/319
f 339/374/329 328/362/320 327/373/328
f 340/375/330 329/363/321 328/362/320
f 341/376/331 330/364/322 329/363/321
f 330/364/322 343/377/57 331/378/46
f 343/379/57 332/367/323 331/380/46
f 332/367/323 345/381/332 333/368/324
f 345/381/332 334/369/325 333/368/324
f 334/369/325 347/382/333 335/383/334
f 335/383/334 348/384/335 336/370/326
f 336/370/326 337/371/62 325/359/40
f 349/385/75 338/372/327 337/371/62
f 350/386/336 339/374/329 338/372/327
f 351/387/337 340/375/330 339/374/329
f 352/388/338 341/376/331 340/375/330
f 341/376/331 354/389/339 342/390/340
f 342/390/340 355/391/56 343/377/57
f 355/392/56 344/393/341 343/379/57
f 356/394/342 345/381/332 344/393/341
f 357/395/343 346/396/344 345/381/332
f 346/396/344 359/397/345 347/382/333
f 347/382/333 360/398/346 348/384/335
f 348/384/335 349/385/75 337/371/62
f 361/399/76 350/386/336 349/385/75
f 350/386/336 363/400/347 351/387/337
f 351/387/337 364/401/348 352/388/338
f 364/401/348 353/402/349 352/388/338
f 365/403/350 354/389/339 353/402/349
f 366/404/351 355/391/56 354/389/339
f 355/392/56 368/405/352 356/394/342
f 356/394/342 369/406/353 357/395/343
f 357/395/343 370/407/354 358/408/355
f 370/407/354 359/397/345 358/408/355
f 371/409/356 360/398/346 359/397/345
f 360/398/346 361/399/76 349/385/75
f 373/410/102 362/411/357 361/399/76
f 362/411/357 375/412/358 363/400/347
f 363/400/347 376/413/359 364/401/348
f 364/401/348 377/414/360 365/403/350
f 365/403/350 378/415/361 366/404/351
f 378/415/361 367/416/68 366/404/351
f 379/417/95 368/405/352 367/418/68
f 380/419/362 369/406/353 368/405/352
f 381/420/363 370/407/354 369/406/353
f 382/421/364 371/409/356 370/407/354
f 383/422/365 372/423/366 371/409/356
f 384/424/367 361/399/76 372/423/366
f 373/410/102 386/425/368 374/426/369
f 386/425/368 375/412/358 374/426/369
f 375/412/358 388/427/370 376/413/359
f 376/413/359 389/428/371 377/414/360
f 377/414/360 390/429/372 378/415/361
f 390/429/372 379/430/95 378/415/361
f 379/417/95 392/431/373 380/419/362
f 392/431/373 381/420/363 380/419/362
f 393/432/374 382/421/364 381/420/363
f 394/433/375 383/422/365 382/421/364
f 395/434/376 384/424/367 383/422/365
f 396/435/377 373/410/102 384/424/367
f 397/436/124 386/425/368 385/437/101
f 398/438/378 387/439/379 386/425/368
f 387/439/379 400/440/380 388/427/370
f 400/440/380 389/428/371 388/427/370
f 401/441/381 390/429/372 389/428/371
f 402/442/382 391/443/109 390/429/372
f 391/444/109 404/445/383 392/431/373
f 392/431/373 405/446/384 393/432/374
f 393/432/374 406/447/385 394/433/375
f 406/447/385 395/434/376 394/433/375
f 407/448/386 396/435/377 395/434/376
f 408/449/387 385/437/101 396/435/377
f 397/436/124 410/450/388 398/438/378
f 410/450/388 399/451/389 398/438/378
f 411/452/390 400/440/380 399/451/389
f 400/440/380 413/453/391 401/441/381
f 401/441/381 414/454/392 402/442/382
f 414/454/392 403/455/108 402/442/382
f 415/456/120 404/445/383 403/457/108
f 416/458/393 405/446/384 404/445/383
f 417/459/394 406/447/385 405/446/384
f 406/447/385 419/460/395 407/448/386
f 407/448/386 420/461/396 408/449/387
f 420/461/396 397/436/124 408/449/387
f 409/462/136 422/463/397 410/450/388
f 422/463/397 411/452/390 410/450/388
f 423/464/398 412/465/399 411/452/390
f 424/466/400 413/453/391 412/465/399
f 413/453/391 426/467/401 414/454/392
f 426/467/401 415/468/120 414/454/392
f 415/456/120 428/469/402 416/458/393
f 428/469/402 417/459/394 416/458/393
f 417/459/394 430/470/403 418/471/404
f 430/470/403 419/460/395 418/471/404
f 431/472/405 420/461/396 419/460/395
f 432/473/406 409/462/136 420/461/396
f 433/474/149 422/463/397 421/475/148
f 434/476/407 423/464/398 422/463/397
f 435/477/408 424/466/400 423/464/398
f 424/466/400 437/478/409 425/479/410
f 437/478/409 426/467/401 425/479/410
f 426/467/401 439/480/142 427/481/129
f 439/482/142 428/469/402 427/483/129
f 440/484/411 429/485/412 428/469/402
f 441/486/413 430/470/403 429/485/412
f 442/487/414 431/472/405 430/470/403
f 431/472/405 444/488/415 432/473/406
f 444/488/415 421/475/148 432/473/406
f 445/489/161 434/476/407 433/474/149
f 446/490/416 435/477/408 434/476/407
f 435/477/408 448/491/417 436/492/418
f 448/491/417 437/478/409 436/492/418
f 449/493/419 438/494/420 437/478/409
f 450/495/421 439/480/142 438/494/420
f 451/496/155 440/484/411 439/482/142
f 440/484/411 453/497/422 441/486/413
f 441/486/413 454/498/423 442/487/414
f 454/498/423 443/499/424 442/487/414
f 455/500/425 444/488/415 443/499/424
f 456/501/426 433/474/149 444/488/415
f 457/502/185 446/490/416 445/489/161
f 458/503/427 447/504/428 446/490/416
f 459/505/429 448/491/417 447/504/428
f 460/506/430 449/493/419 448/491/417
f 449/493/419 462/507/431 450/495/421
f 462/507/431 451/508/155 450/495/421
f 463/509/180 452/510/432 451/496/155
f 464/511/433 453/497/422 452/510/432
f 453/497/422 466/512/434 454/498/423
f 454/498/423 467/513/435 455/500/425
f 455/500/425 468/514/436 456/501/426
f 468/514/436 445/489/161 456/501/426
f 469/515/197 458/503/427 457/502/185
f 470/516/437 459/505/429 458/503/427
f 471/517/438 460/506/430 459/505/429
f 460/506/430 473/518/439 461/519/440
f 473/518/439 462/507/431 461/519/440
f 462/507/431 475/520/179 463/521/180
f 475/522/179 464/511/433 463/509/180
f 476/523/441 465/524/442 464/511/433
f 477/525/443 466/512/434 465/524/442
f 478/526/444 467/513/435 466/512/434
f 467/513/435 480/527/445 468/514/436
f 468/514/436 469/515/197 457/502/185
f 481/528/196 470/516/437 469/515/197
f 470/516/437 483/529/446 471/517/438
f 471/517/438 484/530/447 472/531/448
f 472/531/448 485/532/449 473/518/439
f 473/518/439 486/533/450 474/534/451
f 474/534/451 487/535/190 475/520/179
f 487/536/190 476/523/441 475/522/179
f 488/537/452 477/525/443 476/523/441
f 489/538/453 478/526/444 477/525/443
f 490/539/454 479/540/455 478/526/444
f 491/541/456 480/527/445 479/540/455
f 492/542/457 469/515/197 480/527/445
f 481/528/196 494/543/458 482/544/459
f 494/543/458 483/529/446 482/544/459
f 495/545/460 484/530/447 483/529/446
f 496/546/461 485/532/449 484/530/447
f 497/547/462 486/533/450 485/532/449
f 498/548/463 487/535/190 486/533/450
f 487/536/190 500/549/464 488/537/452
f 488/537/452 501/550/465 489/538/453
f 489/538/453 502/551/466 490/539/454
f 490/539/454 503/552/467 491/541/456
f 491/541/456 504/553/468 492/542/457
f 504/553/468 481/528/196 492/542/457
f 493/554/209 506/555/469 494/543/458
f 506/555/469 495/545/460 494/543/458
f 495/545/460 508/556/470 496/546/461
f 496/546/461 509/557/471 497/547/462
f 497/547/462 510/558/472 498/548/463
f 498/548/463 511/559/225 499/560/203
f 511/561/225 500/549/464 499/562/203
f 512/563/473 501/550/465 500/549/464
f 513/564/474 502/551/466 501/550/465
f 514/565/475 503/552/467 502/551/466
f 515/566/476 504/553/468 503/552/467
f 516/567/477 493/554/209 504/553/468
f 505/568/219 518/569/478 506/555/469
f 518/569/478 507/570/479 506/555/469
f 507/570/479 520/571/480 508/556/470
f 520/571/480 509/557/471 508/556/470
f 521/572/481 510/558/472 509/557/471
f 510/558/472 523/573/238 511/559/225
f 523/574/238 512/563/473 511/561/225
f 512/563/473 525/575/482 513/564/474
f 525/575/482 514/565/475 513/564/474
f 526/576/483 515/566/476 514/565/475
f 515/566/476 528/577/484 516/567/477
f 528/577/484 505/568/219 516/567/477
f 517/578/232 530/579/485 518/569/478
f 530/579/485 519/580/486 518/569/478
f 531/581/487 520/571/480 519/580/486
f 520/571/480 533/582/488 521/572/481
f 533/582/488 522/583/489 521/572/481
f 522/583/489 535/584/249 523/573/238
f 535/585/249 524/586/490 523/574/238
f 524/586/490 537/587/491 525/575/482
f 537/587/491 526/576/483 525/575/482
f 538/588/492 527/589/493 526/576/483
f 527/589/493 540/590/494 528/577/484
f 540/590/494 517/578/232 528/577/484
f 529/591/255 542/592/495 530/579/485
f 530/579/485 543/593/496 531/581/487
f 531/581/487 544/594/497 532/595/498
f 532/595/498 545/596/499 533/582/488
f 545/596/499 534/597/500 533/582/488
f 534/597/500 547/598/262 535/584/249
f 547/599/262 536/600/501 535/585/249
f 548/601/502 537/587/491 536/600/501
f 549/602/503 538/588/492 537/587/491
f 550/603/504 539/604/505 538/588/492
f 551/605/506 540/590/494 539/604/505
f 552/606/507 529/591/255 540/590/494
f 553/607/267 542/592/495 541/608/268
f 554/609/508 543/593/496 542/592/495
f 555/610/509 544/594/497 543/593/496
f 556/611/510 545/596/499 544/594/497
f 557/612/511 546/613/512 545/596/499
f 558/614/513 547/598/262 546/613/512
f 547/599/262 560/615/514 548/601/502
f 548/601/502 561/616/515 549/602/503
f 561/616/515 550/603/504 549/602/503
f 550/603/504 563/617/516 551/605/506
f 563/617/516 552/606/507 551/605/506
f 552/606/507 553/607/267 541/608/268
f 565/618/282 554/609/508 553/607/267
f 554/609/508 567/619/517 555/610/509
f 555/610/509 568/620/518 556/611/510
f 556/611/510 569/621/519 557/612/511
f 557/612/511 570/622/520 558/614/513
f 558/614/513 571/623/275 559/624/261
f 571/625/275 560/615/514 559/626/261
f 572/627/521 561/616/515 560/615/514
f 573/628/522 562/629/523 561/616/515
f 574/630/524 563/617/516 562/629/523
f 575/631/525 564/632/526 563/617/516
f 576/633/527 553/607/267 564/632/526
f 1/1/1 566/634/528 565/618/282
f 2/3/3 567/619/517 566/634/528
f 3/5/5 568/620/518 567/619/517
f 4/7/7 569/621/519 568/620/518
f 569/621/519 6/10/10 570/622/520
f 6/10/10 571/623/275 570/622/520
f 571/625/275 8/14/13 572/627/521
f 8/14/13 573/628/522 572/627/521
f 573/628/522 10/18/16 574/630/524
f 574/630/524 11/20/18 575/631/525
f 575/631/525 12/22/20 576/633/527
f 576/633/527 1/1/1 565/618/282
f 1/1/1 13/25/23 14/2/2
f 2/3/3 14/2/2 15/4/4
f 3/5/5 15/4/4 16/6/6
f 4/7/7 16/6/6 17/8/8
f 17/8/8 18/30/28 6/10/10
f 6/10/10 18/30/28 19/11/11
f 19/13/11 20/33/30 8/14/13
f 8/14/13 20/33/30 21/16/14
f 21/16/14 22/19/17 10/18/16
f 22/19/17 23/21/19 11/20/18
f 23/21/19 24/23/21 12/22/20
f 24/23/21 13/25/23 1/1/1
f 25/24/22 26/26/24 14/2/2
f 26/26/24 27/27/25 15/4/4
f 27/27/25 28/28/26 16/6/6
f 28/28/26 29/29/27 17/8/8
f 29/29/27 30/42/39 18/30/28
f 18/30/28 30/42/39 31/31/29
f 31/32/29 32/45/41 20/33/30
f 20/33/30 32/45/41 33/34/31
f 21/16/14 33/34/31 34/35/32
f 22/19/17 34/35/32 35/36/33
f 23/21/19 35/36/33 36/37/34
f 24/23/21 36/37/34 25/24/22
f 25/24/22 37/50/46 38/38/35
f 38/38/35 39/39/36 27/27/25
f 39/39/36 40/53/49 28/28/26
f 28/28/26 40/53/49 41/40/37
f 29/29/27 41/40/37 42/41/38
f 30/42/39 42/41/38 43/43/40
f 43/44/40 44/46/42 32/45/41
f 44/46/42 45/47/43 33/34/31
f 45/47/43 46/58/54 34/35/32
f 34/35/32 46/58/54 47/48/44
f 47/48/44 48/49/45 36/37/34
f 48/49/45 37/50/46 25/24/22
f 37/50/46 49/61/57 50/51/47
f 50/51/47 51/63/59 39/39/36
f 39/39/36 51/63/59 52/52/48
f 52/52/48 53/54/50 41/40/37
f 53/54/50 54/55/51 42/41/38
f 54/55/51 55/66/62 43/43/40
f 43/44/40 55/67/62 56/56/52
f 56/56/52 57/69/64 45/47/43
f 45/47/43 57/69/64 58/57/53
f 58/57/53 59/71/66 47/48/44
f 47/48/44 59/71/66 60/59/55
f 60/59/55 49/61/57 37/50/46
f 61/60/56 62/74/69 50/51/47
f 50/51/47 62/74/69 63/62/58
f 63/62/58 64/64/60 52/52/48
f 64/64/60 65/78/73 53/54/50
f 53/54/50 65/78/73 66/65/61
f 66/65/61 67/80/75 55/66/62
f 55/67/62 67/82/75 68/68/63
f 68/68/63 69/84/78 57/69/64
f 57/69/64 69/84/78 70/70/65
f 70/70/65 71/72/67 59/71/66
f 71/72/67 72/88/82 60/59/55
f 60/59/55 72/88/82 61/60/56
f 73/73/68 74/75/70 62/74/69
f 74/75/70 75/76/71 63/62/58
f 75/76/71 76/77/72 64/64/60
f 76/77/72 77/92/86 65/78/73
f 65/78/73 77/92/86 78/79/74
f 78/79/74 79/95/76 67/80/75
f 79/81/76 80/83/77 68/68/63
f 80/83/77 81/98/91 69/84/78
f 69/84/78 81/98/91 82/85/79
f 70/70/65 82/85/79 83/86/80
f 71/72/67 83/86/80 84/87/81
f 72/88/82 84/87/81 73/73/68
f 73/73/68 85/102/95 86/89/83
f 74/75/70 86/89/83 87/90/84
f 87/90/84 88/91/85 76/77/72
f 88/91/85 89/93/87 77/92/86
f 89/93/87 90/94/88 78/79/74
f 90/94/88 91/109/102 79/95/76
f 79/81/76 91/111/102 92/96/89
f 80/83/77 92/96/89 93/97/90
f 81/98/91 93/97/90 94/99/92
f 82/85/79 94/99/92 95/100/93
f 95/100/93 96/101/94 84/87/81
f 96/101/94 85/102/95 73/73/68
f 85/102/95 97/118/109 98/103/96
f 86/89/83 98/103/96 99/104/97
f 87/90/84 99/104/97 100/105/98
f 88/91/85 100/105/98 101/106/99
f 89/93/87 101/106/99 102/107/100
f 90/94/88 102/107/100 103/108/101
f 103/110/101 104/112/103 92/96/89
f 104/112/103 105/113/104 93/97/90
f 105/113/104 106/114/105 94/99/92
f 106/114/105 107/115/106 95/100/93
f 107/115/106 108/116/107 96/101/94
f 108/116/107 97/118/109 85/102/95
f 109/117/108 110/119/110 98/103/96
f 110/119/110 111/120/111 99/104/97
f 111/120/111 112/121/112 100/105/98
f 112/121/112 113/122/113 101/106/99
f 113/122/113 114/123/114 102/107/100
f 114/123/114 115/133/124 103/108/101
f 103/110/101 115/134/124 116/124/115
f 104/112/103 116/124/115 117/125/116
f 105/113/104 117/125/116 118/126/117
f 106/114/105 118/126/117 119/127/118
f 107/115/106 119/127/118 120/128/119
f 120/128/119 109/117/108 97/118/109
f 121/129/120 122/140/130 110/119/110
f 110/119/110 122/140/130 123/130/121
f 111/120/111 123/130/121 124/131/122
f 124/131/122 125/143/133 113/122/113
f 113/122/113 125/143/133 126/132/123
f 126/132/123 127/146/136 115/133/124
f 115/134/124 127/147/136 128/135/125
f 128/135/125 129/136/126 117/125/116
f 129/136/126 130/137/127 118/126/117
f 130/137/127 131/138/128 119/127/118
f 131/138/128 132/152/141 120/128/119
f 120/128/119 132/152/141 121/129/120
f 133/139/129 134/154/143 122/140/130
f 122/140/130 134/154/143 135/141/131
f 135/141/131 136/142/132 124/131/122
f 136/142/132 137/144/134 125/143/133
f 137/144/134 138/145/135 126/132/123
f 138/145/135 139/159/148 127/146/136
f 127/147/136 139/161/148 140/148/137
f 128/135/125 140/148/137 141/149/138
f 129/136/126 141/149/138 142/150/139
f 142/150/139 143/151/140 131/138/128
f 143/151/140 144/165/153 132/152/141
f 132/152/141 144/165/153 133/139/129
f 145/153/142 146/155/144 134/154/143
f 146/155/144 147/156/145 135/141/131
f 147/156/145 148/170/158 136/142/132
f 136/142/132 148/170/158 149/157/146
f 137/144/134 149/157/146 150/158/147
f 150/158/147 151/173/149 139/159/148
f 151/160/149 152/162/150 140/148/137
f 152/162/150 153/163/151 141/149/138
f 153/163/151 154/177/164 142/150/139
f 142/150/139 154/177/164 155/164/152
f 155/164/152 156/166/154 144/165/153
f 156/166/154 145/153/142 133/139/129
f 157/167/155 158/168/156 146/155/144
f 158/168/156 159/169/157 147/156/145
f 159/169/157 160/171/159 148/170/158
f 160/171/159 161/184/171 149/157/146
f 149/157/146 161/184/171 162/172/160
f 162/172/160 163/186/161 151/173/149
f 163/174/161 164/175/162 152/162/150
f 164/175/162 165/188/174 153/163/151
f 153/163/151 165/188/174 166/176/163
f 154/177/164 166/176/163 167/178/165
f 155/164/152 167/178/165 168/179/166
f 156/166/154 168/179/166 157/167/155
f 157/167/155 169/194/180 170/180/167
f 158/168/156 170/180/167 171/181/168
f 159/169/157 171/181/168 172/182/169
f 160/171/159 172/182/169 173/183/170
f 161/184/171 173/183/170 174/185/172
f 174/185/172 175/199/185 163/186/161
f 163/174/161 175/200/185 176/187/173
f 176/187/173 177/189/175 165/188/174
f 177/189/175 178/190/176 166/176/163
f 178/190/176 179/191/177 167/178/165
f 179/191/177 180/192/178 168/179/166
f 180/192/178 169/194/180 157/167/155
f 181/193/179 182/195/181 170/180/167
f 182/195/181 183/207/192 171/181/168
f 171/181/168 183/207/192 184/196/182
f 184/196/182 185/197/183 173/183/170
f 185/197/183 186/198/184 174/185/172
f 186/198/184 187/212/197 175/199/185
f 175/200/185 187/214/197 188/201/186
f 176/187/173 188/201/186 189/202/187
f 177/189/175 189/202/187 190/203/188
f 190/203/188 191/218/201 179/191/177
f 179/191/177 191/218/201 192/204/189
f 192/204/189 181/193/179 169/194/180
f 193/205/190 194/206/191 182/195/181
f 194/206/191 195/208/193 183/207/192
f 195/208/193 196/223/206 184/196/182
f 184/196/182 196/223/206 197/209/194
f 185/197/183 197/209/194 198/210/195
f 186/198/184 198/210/195 199/211/196
f 199/213/196 200/215/198 188/201/186
f 200/215/198 201/216/199 189/202/187
f 201/216/199 202/230/212 190/203/188
f 190/203/188 202/230/212 203/217/200
f 203/217/200 204/219/202 192/204/189
f 204/219/202 193/205/190 181/193/179
f 205/220/203 206/221/204 194/206/191
f 206/221/204 207/222/205 195/208/193
f 207/222/205 208/224/207 196/223/206
f 208/224/207 209/225/208 197/209/194
f 209/225/208 210/236/218 198/210/195
f 198/210/195 210/236/218 211/226/209
f 211/227/209 212/239/220 200/215/198
f 200/215/198 212/239/220 213/228/210
f 201/216/199 213/228/210 214/229/211
f 202/230/212 214/229/211 215/231/213
f 203/217/200 215/231/213 216/232/214
f 204/219/202 216/232/214 205/220/203
f 205/220/203 217/244/225 218/233/215
f 218/233/215 219/246/227 207/222/205
f 207/222/205 219/246/227 220/234/216
f 220/234/216 221/235/217 209/225/208
f 221/235/217 222/250/231 210/236/218
f 210/236/218 222/250/231 223/237/219
f 223/238/219 224/253/233 212/239/220
f 212/239/220 224/253/233 225/240/221
f 213/228/210 225/240/221 226/241/222
f 226/241/222 227/242/223 215/231/213
f 227/242/223 228/243/224 216/232/214
f 228/243/224 217/244/225 205/220/203
f 217/244/225 229/258/238 230/245/226
f 230/245/226 231/247/228 219/246/227
f 231/247/228 232/261/241 220/234/216
f 220/234/216 232/261/241 233/248/229
f 221/235/217 233/248/229 234/249/230
f 222/250/231 234/249/230 235/251/232
f 235/252/232 236/254/234 224/253/233
f 236/254/234 237/255/235 225/240/221
f 237/255/235 238/266/246 226/241/222
f 226/241/222 238/266/246 239/256/236
f 227/242/223 239/256/236 240/257/237
f 240/257/237 229/258/238 217/244/225
f 229/258/238 241/269/249 242/259/239
f 242/259/239 243/271/251 231/247/228
f 231/247/228 243/271/251 244/260/240
f 244/260/240 245/262/242 233/248/229
f 245/262/242 246/263/243 234/249/230
f 246/263/243 247/275/255 235/251/232
f 235/252/232 247/276/255 248/264/244
f 236/254/234 248/264/244 249/265/245
f 249/265/245 250/267/247 238/266/246
f 250/267/247 251/280/259 239/256/236
f 239/256/236 251/280/259 252/268/248
f 252/268/248 241/269/249 229/258/238
f 241/269/249 253/283/262 254/270/250
f 254/270/250 255/285/264 243/271/251
f 243/271/251 255/285/264 256/272/252
f 244/260/240 256/272/252 257/273/253
f 257/273/253 258/274/254 246/263/243
f 258/274/254 259/289/268 247/275/255
f 247/276/255 259/291/268 260/277/256
f 260/277/256 261/278/257 249/265/245
f 261/278/257 262/279/258 250/267/247
f 262/279/258 263/295/272 251/280/259
f 251/280/259 263/295/272 264/281/260
f 264/281/260 253/283/262 241/269/249
f 265/282/261 266/299/276 254/270/250
f 254/270/250 266/299/276 267/284/263
f 267/284/263 268/302/279 256/272/252
f 256/272/252 268/302/279 269/286/265
f 257/273/253 269/286/265 270/287/266
f 258/274/254 270/287/266 271/288/267
f 271/290/267 272/292/269 260/277/256
f 272/292/269 273/293/270 261/278/257
f 273/293/270 274/294/271 262/279/258
f 274/294/271 275/296/273 263/295/272
f 275/296/273 276/297/274 264/281/260
f 276/297/274 265/282/261 253/283/262
f 277/298/275 278/300/277 266/299/276
f 278/300/277 279/301/278 267/284/263
f 279/301/278 280/303/280 268/302/279
f 280/303/280 281/304/281 269/286/265
f 281/304/281 282/315/291 270/287/266
f 270/287/266 282/315/291 283/305/282
f 283/306/282 284/318/293 272/292/269
f 272/292/269 284/318/293 285/307/283
f 273/293/270 285/307/283 286/308/284
f 274/294/271 286/308/284 287/309/285
f 275/296/273 287/309/285 288/310/286
f 276/297/274 288/310/286 277/298/275
f 277/298/275 289/635/12 290/311/287
f 278/300/277 290/311/287 291/312/288
f 279/301/278 291/312/288 292/313/289
f 292/313/289 293/314/290 281/304/281
f 293/314/290 294/316/292 282/315/291
f 294/316/292 295/636/1 283/305/282
f 295/317/1 296/637/302 284/318/293
f 284/318/293 296/637/302 297/319/294
f 297/319/294 298/320/295 286/308/284
f 298/320/295 299/321/296 287/309/285
f 299/321/296 300/322/297 288/310/286
f 300/322/297 289/635/12 277/298/275
f 301/323/11 302/326/298 290/324/287
f 302/326/298 303/328/299 291/327/288
f 303/328/299 304/330/300 292/329/289
f 304/330/300 305/350/311 293/331/290
f 293/331/290 305/350/311 306/332/301
f 306/332/301 307/352/23 295/334/1
f 307/335/23 308/338/303 296/336/302
f 308/338/303 309/354/314 297/339/294
f 297/339/294 309/354/314 310/340/304
f 298/341/295 310/340/304 311/342/305
f 299/343/296 311/342/305 312/344/306
f 300/345/297 312/344/306 301/323/11
f 301/323/11 313/360/29 314/346/307
f 302/326/298 314/346/307 315/347/308
f 303/328/299 315/347/308 316/348/309
f 304/330/300 316/348/309 317/349/310
f 305/350/311 317/349/310 318/351/312
f 318/351/312 319/365/22 307/352/23
f 307/335/23 319/366/22 320/353/313
f 320/353/313 321/355/315 309/354/314
f 321/355/315 322/356/316 310/340/304
f 322/356/316 323/357/317 311/342/305
f 323/357/317 324/358/318 312/344/306
f 324/358/318 313/360/29 301/323/11
f 325/359/40 326/361/319 314/346/307
f 326/361/319 327/373/328 315/347/308
f 315/347/308 327/373/328 328/362/320
f 328/362/320 329/363/321 317/349/310
f 329/363/321 330/364/322 318/351/312
f 330/364/322 331/378/46 319/365/22
f 319/366/22 331/380/46 332/367/323
f 320/353/313 332/367/323 333/368/324
f 321/355/315 333/368/324 334/369/325
f 334/369/325 335/383/334 323/357/317
f 323/357/317 335/383/334 336/370/326
f 336/370/326 325/359/40 313/360/29
f 337/371/62 338/372/327 326/361/319
f 338/372/327 339/374/329 327/373/328
f 339/374/329 340/375/330 328/362/320
f 340/375/330 341/376/331 329/363/321
f 341/376/331 342/390/340 330/364/322
f 330/364/322 342/390/340 343/377/57
f 343/379/57 344/393/341 332/367/323
f 332/367/323 344/393/341 345/381/332
f 345/381/332 346/396/344 334/369/325
f 334/369/325 346/396/344 347/382/333
f 335/383/334 347/382/333 348/384/335
f 336/370/326 348/384/335 337/371/62
f 349/385/75 350/386/336 338/372/327
f 350/386/336 351/387/337 339/374/329
f 351/387/337 352/388/338 340/375/330
f 352/388/338 353/402/349 341/376/331
f 341/376/331 353/402/349 354/389/339
f 342/390/340 354/389/339 355/391/56
f 355/392/56 356/394/342 344/393/341
f 356/394/342 357/395/343 345/381/332
f 357/395/343 358/408/355 346/396/344
f 346/396/344 358/408/355 359/397/345
f 347/382/333 359/397/345 360/398/346
f 348/384/335 360/398/346 349/385/75
f 361/399/76 362/411/357 350/386/336
f 350/386/336 362/411/357 363/400/347
f 351/387/337 363/400/347 364/401/348
f 364/401/348 365/403/350 353/402/349
f 365/403/350 366/404/351 354/389/339
f 366/404/351 367/416/68 355/391/56
f 355/392/56 367/418/68 368/405/352
f 356/394/342 368/405/352 369/406/353
f 357/395/343 369/406/353 370/407/354
f 370/407/354 371/409/356 359/397/345
f 371/409/356 372/423/366 360/398/346
f 360/398/346 372/423/366 361/399/76
f 373/410/102 374/426/369 362/411/357
f 362/411/357 374/426/369 375/412/358
f 363/400/347 375/412/358 376/413/359
f 364/401/348 376/413/359 377/414/360
f 365/403/350 377/414/360 378/415/361
f 378/415/361 379/430/95 367/416/68
f 379/417/95 380/419/362 368/405/352
f 380/419/362 381/420/363 369/406/353
f 381/420/363 382/421/364 370/407/354
f 382/421/364 383/422/365 371/409/356
f 383/422/365 384/424/367 372/423/366
f 384/424/367 373/410/102 361/399/76
f 373/410/102 385/437/101 386/425/368
f 386/425/368 387/439/379 375/412/358
f 375/412/358 387/439/379 388/427/370
f 376/413/359 388/427/370 389/428/371
f 377/414/360 389/428/371 390/429/372
f 390/429/372 391/443/109 379/430/95
f 379/417/95 391/444/109 392/431/373
f 392/431/373 393/432/374 381/420/363
f 393/432/374 394/433/375 382/421/364
f 394/433/375 395/434/376 383/422/365
f 395/434/376 396/435/377 384/424/367
f 396/435/377 385/437/101 373/410/102
f 397/436/124 398/438/378 386/425/368
f 398/438/378 399/451/389 387/439/379
f 387/439/379 399/451/389 400/440/380
f 400/440/380 401/441/381 389/428/371
f 401/441/381 402/442/382 390/429/372
f 402/442/382 403/455/108 391/443/109
f 391/444/109 403/457/108 404/445/383
f 392/431/373 404/445/383 405/446/384
f 393/432/374 405/446/384 406/447/385
f 406/447/385 407/448/386 395/434/376
f 407/448/386 408/449/387 396/435/377
f 408/449/387 397/436/124 385/437/101
f 397/436/124 409/462/136 410/450/388
f 410/450/388 411/452/390 399/451/389
f 411/452/390 412/465/399 400/440/380
f 400/440/380 412/465/399 413/453/391
f 401/441/381 413/453/391 414/454/392
f 414/454/392 415/468/120 403/455/108
f 415/456/120 416/458/393 404/445/383
f 416/458/393 417/459/394 405/446/384
f 417/459/394 418/471/404 406/447/385
f 406/447/385 418/471/404 419/460/395
f 407/448/386 419/460/395 420/461/396
f 420/461/396 409/462/136 397/436/124
f 409/462/136 421/475/148 422/463/397
f 422/463/397 423/464/398 411/452/390
f 423/464/398 424/466/400 412/465/399
f 424/466/400 425/479/410 413/453/391
f 413/453/391 425/479/410 426/467/401
f 426/467/401 427/481/129 415/468/120
f 415/456/120 427/483/129 428/469/402
f 428/469/402 429/485/412 417/459/394
f 417/459/394 429/485/412 430/470/403
f 430/470/403 431/472/405 419/460/395
f 431/472/405 432/473/406 420/461/396
f 432/473/406 421/475/148 409/462/136
f 433/474/149 434/476/407 422/463/397
f 434/476/407 435/477/408 423/464/398
f 435/477/408 436/492/418 424/466/400
f 424/466/400 436/492/418 437/478/409
f 437/478/409 438/494/420 426/467/401
f 426/467/401 438/494/420 439/480/142
f 439/482/142 440/484/411 428/469/402
f 440/484/411 441/486/413 429/485/412
f 441/486/413 442/487/414 430/470/403
f 442/487/414 443/499/424 431/472/405
f 431/472/405 443/499/424 444/488/415
f 444/488/415 433/474/149 421/475/148
f 445/489/161 446/490/416 434/476/407
f 446/490/416 447/504/428 435/477/408
f 435/477/408 447/504/428 448/491/417
f 448/491/417 449/493/419 437/478/409
f 449/493/419 450/495/421 438/494/420
f 450/495/421 451/508/155 439/480/142
f 451/496/155 452/510/432 440/484/411
f 440/484/411 452/510/432 453/497/422
f 441/486/413 453/497/422 454/498/423
f 454/498/423 455/500/425 443/499/424
f 455/500/425 456/501/426 444/488/415
f 456/501/426 445/489/161 433/474/149
f 457/502/185 458/503/427 446/490/416
f 458/503/427 459/505/429 447/504/428
f 459/505/429 460/506/430 448/491/417
f 460/506/430 461/519/440 449/493/419
f 449/493/419 461/519/440 462/507/431
f 462/507/431 463/521/180 451/508/155
f 463/509/180 464/511/433 452/510/432
f 464/511/433 465/524/442 453/497/422
f 453/497/422 465/524/442 466/512/434
f 454/498/423 466/512/434 467/513/435
f 455/500/425 467/513/435 468/514/436
f 468/514/436 457/502/185 445/489/161
f 469/515/197 470/516/437 458/503/427
f 470/516/437 471/517/438 459/505/429
f 471/517/438 472/531/448 460/506/430
f 460/506/430 472/531/448 473/518/439
f 473/518/439 474/534/451 462/507/431
f 462/507/431 474/534/451 475/520/179
f 475/522/179 476/523/441 464/511/433
f 476/523/441 477/525/443 465/524/442
f 477/525/443 478/526/444 466/512/434
f 478/526/444 479/540/455 467/513/435
f 467/513/435 479/540/455 480/527/445
f 468/514/436 480/527/445 469/515/197
f 481/528/196 482/544/459 470/516/437
f 470/516/437 482/544/459 483/529/446
f 471/517/438 483/529/446 484/530/447
f 472/531/448 484/530/447 485/532/449
f 473/518/439 485/532/449 486/533/450
f 474/534/451 486/533/450 487/535/190
f 487/536/190 488/537/452 476/523/441
f 488/537/452 489/538/453 477/525/443
f 489/538/453 490/539/454 478/526/444
f 490/539/454 491/541/456 479/540/455
f 491/541/456 492/542/457 480/527/445
f 492/542/457 481/528/196 469/515/197
f 481/528/196 493/554/209 494/543/458
f 494/543/458 495/545/460 483/529/446
f 495/545/460 496/546/461 484/530/447
f 496/546/461 497/547/462 485/532/449
f 497/547/462 498/548/463 486/533/450
f 498/548/463 499/560/203 487/535/190
f 487/536/190 499/562/203 500/549/464
f 488/537/452 500/549/464 501/550/465
f 489/538/453 501/550/465 502/551/466
f 490/539/454 502/551/466 503/552/467
f 491/541/456 503/552/467 504/553/468
f 504/553/468 493/554/209 481/528/196
f 493/554/209 505/568/219 506/555/469
f 506/555/469 507/570/479 495/545/460
f 495/545/460 507/570/479 508/556/470
f 496/546/461 508/556/470 509/557/471
f 497/547/462 509/557/471 510/558/472
f 498/548/463 510/558/472 511/559/225
f 511/561/225 512/563/473 500/549/464
f 512/563/473 513/564/474 501/550/465
f 513/564/474 514/565/475 502/551/466
f 514/565/475 515/566/476 503/552/467
f 515/566/476 516/567/477 504/553/468
f 516/567/477 505/568/219 493/554/209
f 505/568/219 517/578/232 518/569/478
f 518/569/478 519/580/486 507/570/479
f 507/570/479 519/580/486 520/571/480
f 520/571/480 521/572/481 509/557/471
f 521/572/481 522/583/489 510/558/472
f 510/558/472 522/583/489 523/573/238
f 523/574/238 524/586/490 512/563/473
f 512/563/473 524/586/490 525/575/482
f 525/575/482 526/576/483 514/565/475
f 526/576/483 527/589/493 515/566/476
f 515/566/476 527/589/493 528/577/484
f 528/577/484 517/578/232 505/568/219
f 517/578/232 529/591/255 530/579/485
f 530/579/485 531/581/487 519/580/486
f 531/581/487 532/595/498 520/571/480
f 520/571/480 532/595/498 533/582/488
f 533/582/488 534/597/500 522/583/489
f 522/583/489 534/597/500 535/584/249
f 535/585/249 536/600/501 524/586/490
f 524/586/490 536/600/501 537/587/491
f 537/587/491 538/588/492 526/576/483
f 538/588/492 539/604/505 527/589/493
f 527/589/493 539/604/505 540/590/494
f 540/590/494 529/591/255 517/578/232
f 529/591/255 541/608/268 542/592/495
f 530/579/485 542/592/495 543/593/496
f 531/581/487 543/593/496 544/594/497
f 532/595/498 544/594/497 545/596/499
f 545/596/499 546/613/512 534/597/500
f 534/597/500 546/613/512 547/598/262
f 547/599/262 548/601/502 536/600/501
f 548/601/502 549/602/503 537/587/491
f 549/602/503 550/603/504 538/588/492
f 550/603/504 551/605/506 539/604/505
f 551/605/506 552/606/507 540/590/494
f 552/606/507 541/608/268 529/591/255
f 553/607/267 554/609/508 542/592/495
f 554/609/508 555/610/509 543/593/496
f 555/610/509 556/611/510 544/594/497
f 556/611/510 557/612/511 545/596/499
f 557/612/511 558/614/513 546/613/512
f 558/614/513 559/624/261 547/598/262
f 547/599/262 559/626/261 560/615/514
f 548/601/502 560/615/514 561/616/515
f 561/616/515 562/629/523 550/603/504
f 550/603/504 562/629/523 563/617/516
f 563/617/516 564/632/526 552/606/507
f 552/606/507 564/632/526 553/607/267
f 565/618/282 566/634/528 554/609/508
f 554/609/508 566/634/528 567/619/517
f 555/610/509 567/619/517 568/620/518
f 556/611/510 568/620/518 569/621/519
f 557/612/511 569/621/519 570/622/520
f 558/614/513 570/622/520 571/623/275
f 571/625/275 572/627/521 560/615/514
f 572/627/521 573/628/522 561/616/515
f 573/628/522 574/630/524 562/629/523
f 574/630/524 575/631/525 563/617/516
f 575/631/525 576/633/527 564/632/526
f 576/633/527 565/618/282 553/607/267
f 1/1/1 2/3/3 566/634/528
f 2/3/3 3/5/5 567/619/517
f 3/5/5 4/7/7 568/620/518
f 4/7/7 5/9/9 569/621/519
f 569/621/519 5/9/9 6/10/10
f 6/10/10 7/12/12 571/623/275
f 571/625/275 7/15/12 8/14/13
f 8/14/13 9/17/15 573/628/522
f 573/628/522 9/17/15 10/18/16
f 574/630/524 10/18/16 11/20/18
f 575/631/525 11/20/18 12/22/20
f 576/633/527 12/22/20 1/1/1
